<?xml version="1.0" encoding="utf-8"?>
<!-- Generator: Adobe Illustrator 18.0.0, SVG Export Plug-In . SVG Version: 6.00 Build 0)  -->
<!DOCTYPE svg PUBLIC "-//W3C//DTD SVG 1.1//EN" "http://www.w3.org/Graphics/SVG/1.1/DTD/svg11.dtd">
<svg version="1.1" id="Lager_1" xmlns="http://www.w3.org/2000/svg" xmlns:xlink="http://www.w3.org/1999/xlink" x="0px" y="0px"
	 viewBox="0 0 169.8 175" enable-background="new 0 0 169.8 175" xml:space="preserve">
<path d="M108.3,3.3C63.2-9.6,16.2,16.4,3.3,61.5c-12.9,45.1,13.1,92.1,58.2,105c23.4,6.7,47.4,2.9,66.8-8.7
	c5.6,1.4,14.4,10.1,15.1,17.2c0,0,4.5-14.8-2.5-26.3c11.8-10.4,20.9-24.1,25.6-40.4C179.4,63.2,153.4,16.2,108.3,3.3"/>
</svg>
