<?xml version="1.0" encoding="utf-8"?>
<!-- Generator: Adobe Illustrator 18.0.0, SVG Export Plug-In . SVG Version: 6.00 Build 0)  -->
<!DOCTYPE svg PUBLIC "-//W3C//DTD SVG 1.1//EN" "http://www.w3.org/Graphics/SVG/1.1/DTD/svg11.dtd">
<svg version="1.1" id="Lager_1" xmlns="http://www.w3.org/2000/svg" xmlns:xlink="http://www.w3.org/1999/xlink" x="0px" y="0px"
	 viewBox="0 0 60 60" enable-background="new 0 0 60 60" xml:space="preserve">
<g>
	<path d="M29.5,1.8C13.8,1.8,1,14.6,1,30.3s12.8,28.5,28.5,28.5C45.3,58.8,58,46,58,30.3S45.3,1.8,29.5,1.8z M29.5,54.8
		C16,54.8,5,43.8,5,30.3S16,5.8,29.5,5.8C43,5.8,54,16.8,54,30.3S43,54.8,29.5,54.8z"/>
	<path d="M41.6,14.9c0-0.9-0.3-2.2-2-3.2c-1.4-0.8-2.8-1-4.1-0.4c-2.2,0.9-3.8,3.8-4.9,6.3c-0.4-1.4-1.1-2.6-2.2-3.3
		c-0.7-0.4-1.9-0.8-3.5,0c-1.6,0.8-2.1,2-2.1,2.8c-0.2,1.7,1,3.5,2.2,4.9H14.4v10.2h2v14.2h26.4V32.3h2V22.1h-9.4
		C38.3,20.2,41.5,17.4,41.6,14.9z M36.4,13.5c0.2-0.1,0.4-0.2,0.8-0.2c0.3,0,0.8,0.1,1.3,0.4c0.9,0.5,0.8,1,0.8,1.1
		c0,1.9-4.2,5-7.7,7C32.4,19.1,34.1,14.4,36.4,13.5z M25.1,17.4c0-0.2,0.1-0.6,0.9-1c0.8-0.4,1.1-0.2,1.2-0.1
		c1.1,0.7,1.6,3.6,1.7,5.8h-0.7C26.7,20.7,25,18.7,25.1,17.4z M28.2,24.8v4.5H17.1v-4.5H28.2z M19.1,31.1h9.1v12.7h-9.1V31.1z
		 M31.8,43.9V31.1h8.3v12.7H31.8z M42.1,29.3H31.8v-4.5h10.3V29.3z"/>
</g>
</svg>
