<?xml version="1.0" encoding="utf-8"?>
<!-- Generator: Adobe Illustrator 18.0.0, SVG Export Plug-In . SVG Version: 6.00 Build 0)  -->
<!DOCTYPE svg PUBLIC "-//W3C//DTD SVG 1.1//EN" "http://www.w3.org/Graphics/SVG/1.1/DTD/svg11.dtd">
<svg version="1.1" id="Lager_1" xmlns="http://www.w3.org/2000/svg" xmlns:xlink="http://www.w3.org/1999/xlink" x="0px" y="0px"
	 viewBox="0 0 60 60" enable-background="new 0 0 60 60" xml:space="preserve">
<g>
	<path d="M30.5,1.8C14.7,1.8,2,14.6,2,30.3s12.8,28.5,28.5,28.5S59,46,59,30.3S46.2,1.8,30.5,1.8z M30.5,54.8
		C16.9,54.8,6,43.8,6,30.3s11-24.5,24.5-24.5S55,16.8,55,30.3S44,54.8,30.5,54.8z"/>
	<rect x="17.1" y="20.9" width="22" height="28.5"/>
	<polygon points="21.8,19.2 40.8,19.2 40.8,46.2 42.8,46.2 42.8,17.2 21.8,17.2 	"/>
	<polygon points="25.3,15.7 44.3,15.7 44.3,42.7 46.3,42.7 46.3,13.7 25.3,13.7 	"/>
</g>
</svg>
