<?xml version="1.0" encoding="utf-8"?>
<!-- Generator: Adobe Illustrator 18.0.0, SVG Export Plug-In . SVG Version: 6.00 Build 0)  -->
<!DOCTYPE svg PUBLIC "-//W3C//DTD SVG 1.1//EN" "http://www.w3.org/Graphics/SVG/1.1/DTD/svg11.dtd">
<svg version="1.1" id="Lager_1" xmlns="http://www.w3.org/2000/svg" xmlns:xlink="http://www.w3.org/1999/xlink" x="0px" y="0px"
	 viewBox="0 0 60 60" enable-background="new 0 0 60 60" xml:space="preserve">
<g>
	<path d="M30,1.8C14.2,1.8,1.5,14.6,1.5,30.3S14.2,58.8,30,58.8c15.7,0,28.5-12.8,28.5-28.5S45.7,1.8,30,1.8z M30,54.8
		c-13.5,0-24.5-11-24.5-24.5S16.5,5.8,30,5.8c13.5,0,24.5,11,24.5,24.5S43.5,54.8,30,54.8z"/>
	<path d="M30,31c-6,0-10.9,5.1-10.9,11.5c0,0.9,21.7,0.9,21.7,0C40.8,36.1,36,31,30,31z"/>
	<circle cx="30" cy="23.8" r="6.4"/>
</g>
</svg>
