<?xml version="1.0" encoding="utf-8"?>
<!-- Generator: Adobe Illustrator 18.1.1, SVG Export Plug-In . SVG Version: 6.00 Build 0)  -->
<!DOCTYPE svg PUBLIC "-//W3C//DTD SVG 1.1//EN" "http://www.w3.org/Graphics/SVG/1.1/DTD/svg11.dtd">
<svg version="1.1" id="Lager_1" xmlns="http://www.w3.org/2000/svg" xmlns:xlink="http://www.w3.org/1999/xlink" x="0px" y="0px"
	 width="210px" height="80px" viewBox="0 0 210 80" enable-background="new 0 0 210 80" xml:space="preserve">
<g>
	<g>
		<path d="M111.1,72.4c0,3,1.3,5.4,4.9,5.4c3.6,0,4.9-2.5,4.9-5.4c0-3-1.3-5.4-4.9-5.4C112.4,66.9,111.1,69.4,111.1,72.4
			 M108.5,72.4c0-4.2,4.1-6.2,7.5-6.2c3.4,0,7.5,2,7.5,6.2c0,4.2-4.1,6.2-7.5,6.2C112.6,78.6,108.5,76.6,108.5,72.4"/>
	</g>
</g>
<g>
	<g>
		<polygon points="95.8,78.3 91,68.8 89.4,77.5 91.4,77.9 91.4,78.3 86.2,78.3 86.2,77.9 88.3,77.5 90.3,66.4 92.2,66.4 96.8,75.5 
			101.9,66.4 103.5,66.4 105.6,77.5 107.7,77.9 107.7,78.3 101,78.3 101,77.9 103.1,77.5 101.7,68.7 96.5,78.3 		"/>
	</g>
</g>
<g>
	<g>
		<polygon points="126.4,66.3 127.8,66.3 137.5,75.4 137.5,67.3 135.3,66.9 135.3,66.4 140.3,66.4 140.3,66.9 138.5,67.3 
			138.5,78.5 137.5,78.5 127.5,69.1 127.5,77.5 129.7,77.9 129.7,78.3 124.4,78.3 124.4,77.9 126.4,77.5 		"/>
	</g>
</g>
<g>
	<g>
		<path d="M61.7,77.6v-5.1h7.5v-0.8h-7.5v-4.6H62c2.2,0,7.2,0.7,7.2,0.7v-1.4h-12v0.5l2.1,0.4v10.2l-2.1,0.4v0.5h12.2v-1.5
			c0,0-5.7,0.8-7.2,0.8L61.7,77.6z"/>
	</g>
</g>
<g>
	<g>
		<path d="M79.6,72.8v0.5l2.3,0.5v3.8c-0.7,0.2-1.6,0.3-3,0.3c-3.4,0-5.1-2.1-5.1-5.3c0-4.3,2.4-5.5,5.2-5.5c1.9,0,3.9,0.7,4.9,1.3
			l0.5-1.4c-1.5-0.4-3.5-0.7-5.5-0.7c-3.1,0-7.6,1.6-7.6,6.5c0,3.9,3.7,6,7.8,6c1.7,0,2.9-0.1,5.2-0.6v-4.2l1.9-0.5v-0.5H79.6z"/>
	</g>
</g>
<g>
	<g>
		<path d="M153.4,66.4v1.4c0,0-3.1-0.7-4.6-0.7h-0.4v10.3l2.2,0.4v0.5h-6.7v-0.5l2.2-0.4V67.1h-0.4c-1.5,0-4.6,0.7-4.6,0.7v-1.4
			H153.4z"/>
	</g>
</g>
<g>
	<g>
		<path d="M198.7,30.9h1.5v12.2c0,1.1-0.5,1.8-1.5,1.8c-1,0-1.5-0.6-1.5-1.8V10.9c0-0.9,0.5-1.6,1.5-1.6c1,0,1.5,0.6,1.5,1.6v7.4
			h8.7v-7.3c0-5.5-2.3-9.6-10.2-9.6c-7.9,0-10.2,4.1-10.2,9.6v32.1c0,5.5,2.3,9.6,10.2,9.6c7.9,0,10.2-4.1,10.2-9.6V22.8h-10.2V30.9
			z M176.3,52.1h8V2.2h-7.9v15c0,3,0.2,10.5,0.4,13.1l-6-28.1h-8.1v49.9h7.9v-15c0-3-0.1-10.6-0.3-13.1L176.3,52.1z M149.2,52.1h8.8
			V2.2h-8.8V52.1z M136.6,52.1h8V2.2h-7.9v15c0,3,0.2,10.5,0.4,13.1l-6-28.1H123v49.9h7.9v-15c0-3-0.1-10.6-0.3-13.1L136.6,52.1z
			 M106.9,10.4h1.4c1.1,0,1.6,0.5,1.6,1.7v30.1c0,1.1-0.4,1.6-1.5,1.6h-1.5V10.4z M98.2,52.1h11.7c7.1,0,8.8-2.9,8.8-8.9V11.1
			c0-5.8-1.8-8.9-9.1-8.9H98.2V52.1z M85.5,52.1h8.8V2.2h-8.8V52.1z M77.5,10.4h5.1V2.2H63.7v8.3h5.1v41.7h8.8V10.4z M53.2,52.1h8
			V2.2h-7.9v15c0,3,0.2,10.5,0.4,13.1l-6-28.1h-8.1v49.9h7.9v-15c0-3-0.1-10.6-0.3-13.1L53.2,52.1z M26.2,52.1H35V2.2h-8.8V52.1z
			 M9.8,10.4h1.4c1.1,0,1.6,0.5,1.6,1.7v30.1c0,1.1-0.4,1.6-1.5,1.6H9.8V10.4z M1,52.1h11.7c7.1,0,8.8-2.9,8.8-8.9V11.1
			c0-5.8-1.8-8.9-9.1-8.9H1V52.1z"/>
	</g>
</g>
<g>
	<rect x="-11.5" y="-9.2" fill="none" width="232" height="99"/>
</g>
</svg>
