<?xml version="1.0" encoding="utf-8"?>
<!-- Generator: Adobe Illustrator 18.1.1, SVG Export Plug-In . SVG Version: 6.00 Build 0)  -->
<!DOCTYPE svg PUBLIC "-//W3C//DTD SVG 1.1//EN" "http://www.w3.org/Graphics/SVG/1.1/DTD/svg11.dtd">
<svg version="1.1" id="Lager_1" xmlns="http://www.w3.org/2000/svg" xmlns:xlink="http://www.w3.org/1999/xlink" x="0px" y="0px"
	 width="28px" height="28px" viewBox="0 0 28 28" enable-background="new 0 0 28 28" xml:space="preserve">
<g>
	<g>
		<path d="M14,28c7.7,0,14-6.3,14-14S21.7,0,14,0C6.3,0,0,6.3,0,14S6.3,28,14,28"/>
	</g>
</g>
<g>
	<g>
		<path fill="#FFFFFF" d="M16.2,14.3c0,1.2-1,2.2-2.2,2.2s-2.2-1-2.2-2.2s1-2.2,2.2-2.2S16.2,13.1,16.2,14.3 M14,18.8
			c-2.5,0-4.5-2-4.5-4.5c0-2.5,2-4.5,4.5-4.5s4.5,2,4.5,4.5C18.5,16.8,16.5,18.8,14,18.8 M19.6,8.7h-2.2l-1.1-2.2h-4.5l-1.1,2.2H8.4
			c-1.2,0-2.2,1-2.2,2.2v6.7c0,1.2,1,2.2,2.2,2.2h11.2c1.2,0,2.2-1,2.2-2.2V11C21.8,9.7,20.8,8.7,19.6,8.7"/>
	</g>
</g>
</svg>
