<?xml version="1.0" encoding="utf-8"?>
<!-- Generator: Adobe Illustrator 18.1.1, SVG Export Plug-In . SVG Version: 6.00 Build 0)  -->
<!DOCTYPE svg PUBLIC "-//W3C//DTD SVG 1.1//EN" "http://www.w3.org/Graphics/SVG/1.1/DTD/svg11.dtd">
<svg version="1.1" id="Lager_1" xmlns="http://www.w3.org/2000/svg" xmlns:xlink="http://www.w3.org/1999/xlink" x="0px" y="0px"
	 width="38px" height="38px" viewBox="0 0 38 38" enable-background="new 0 0 38 38" xml:space="preserve">
<g>
	<g>
		<polygon fill="#87868D" points="0,38 38,38 38,0 		"/>
	</g>
</g>
<g>
	<g>
		
			<rect x="20" y="26.2" transform="matrix(0.7071 0.7071 -0.7071 0.7071 28.486 -5.9258)" fill="#FFFFFF" width="2.8" height="10.4"/>
	</g>
</g>
<g>
	<g>
		<path fill="#87868D" d="M28.5,31.4c3.9,0,7.1-3.2,7.1-7.1s-3.2-7.1-7.1-7.1c-3.9,0-7.1,3.2-7.1,7.1S24.6,31.4,28.5,31.4"/>
	</g>
</g>
<g>
	<g>
		<path fill="#FFFFFF" d="M28.5,32.1c-4.3,0-7.8-3.5-7.8-7.8c0-4.3,3.5-7.8,7.8-7.8c4.3,0,7.8,3.5,7.8,7.8
			C36.3,28.6,32.8,32.1,28.5,32.1z M28.5,18c-3.5,0-6.3,2.8-6.3,6.3c0,3.5,2.8,6.3,6.3,6.3c3.5,0,6.3-2.8,6.3-6.3
			C34.8,20.8,32,18,28.5,18z"/>
	</g>
</g>
<g>
	<g>
		<polygon fill="#FFFFFF" points="31,24.2 31,23.7 28.8,23.7 28.8,21.5 28.2,21.5 28.2,23.7 25.9,23.7 25.9,24.2 28.2,24.2 
			28.2,26.6 28.8,26.6 28.8,24.2 		"/>
	</g>
</g>
<g>
	<rect x="0" y="0" fill="none" width="38" height="38"/>
</g>
</svg>
