<?xml version="1.0" encoding="utf-8"?>
<!-- Generator: Adobe Illustrator 18.1.1, SVG Export Plug-In . SVG Version: 6.00 Build 0)  -->
<!DOCTYPE svg PUBLIC "-//W3C//DTD SVG 1.1//EN" "http://www.w3.org/Graphics/SVG/1.1/DTD/svg11.dtd">
<svg version="1.1" id="Lager_1" xmlns="http://www.w3.org/2000/svg" xmlns:xlink="http://www.w3.org/1999/xlink" x="0px" y="0px"
	 width="13px" height="15px" viewBox="0 0 13 15" enable-background="new 0 0 13 15" xml:space="preserve">
<g>
	<g>
		<path fill="#FFFFFF" d="M12.7,14.6c0-3.7-2.8-6.7-6.3-6.7c-3.5,0-6.3,3-6.3,6.7C0,15.1,12.7,15.1,12.7,14.6"/>
	</g>
</g>
<g>
	<g>
		<path fill="#FFFFFF" d="M6.3,7.5c2.1,0,3.8-1.7,3.8-3.8C10.1,1.7,8.4,0,6.3,0C4.3,0,2.6,1.7,2.6,3.8C2.6,5.8,4.3,7.5,6.3,7.5"/>
	</g>
</g>
</svg>
