<?xml version="1.0" encoding="utf-8"?>
<!-- Generator: Adobe Illustrator 18.1.1, SVG Export Plug-In . SVG Version: 6.00 Build 0)  -->
<!DOCTYPE svg PUBLIC "-//W3C//DTD SVG 1.1//EN" "http://www.w3.org/Graphics/SVG/1.1/DTD/svg11.dtd">
<svg version="1.1" id="Lager_1" xmlns="http://www.w3.org/2000/svg" xmlns:xlink="http://www.w3.org/1999/xlink" x="0px" y="0px"
	 width="22px" height="22px" viewBox="0 0 22 22" enable-background="new 0 0 22 22" xml:space="preserve">
<g>
	<g>
		<path fill="#FFFFFF" d="M11,20.2c5.1,0,9.3-4.2,9.3-9.3S16.1,1.6,11,1.6c-5.1,0-9.3,4.2-9.3,9.3S5.9,20.2,11,20.2"/>
	</g>
</g>
<g>
	<g>
		<path d="M11,21.1c-5.6,0-10.2-4.6-10.2-10.2S5.4,0.7,11,0.7s10.2,4.6,10.2,10.2S16.6,21.1,11,21.1z M11,2.6
			c-4.6,0-8.3,3.7-8.3,8.3s3.7,8.3,8.3,8.3s8.3-3.7,8.3-8.3S15.6,2.6,11,2.6z"/>
	</g>
</g>
<g>
	<g>
		<rect x="6.4" y="9.5" transform="matrix(0.7071 0.7071 -0.7071 0.7071 11.0036 -4.6892)" width="9.6" height="2.8"/>
	</g>
</g>
<g>
	<g>
		<rect x="9.7" y="6.3" transform="matrix(0.7076 0.7066 -0.7066 0.7076 11.0193 -4.6313)" width="2.8" height="9.5"/>
	</g>
</g>
<g>
	<rect x="0" y="0" fill="none" width="22" height="22"/>
</g>
</svg>
