<svg display="none" width="0" height="0" version="1.1" xmlns="http://www.w3.org/2000/svg" xmlns:xlink="http://www.w3.org/1999/xlink">
<defs>
<symbol id="icon-dt_bigbubble" viewBox="0 0 1024 1024">
	<title>dt_bigbubble</title>
	<path class="path1" d="M648.338 19.31c-263.899-75.483-538.917 76.654-614.4 340.553s76.654 538.917 340.553 614.4c136.923 39.205 277.358 16.969 390.875-50.907 32.768 8.192 84.261 59.099 88.357 100.645 0 0 26.331-86.601-14.629-153.893 69.047-60.855 122.295-141.019 149.797-236.398 75.483-263.899-76.654-538.917-340.553-614.4z"></path>
</symbol>
<symbol id="icon-dt_camera-circle" viewBox="0 0 1024 1024">
	<title>dt_camera-circle</title>
	<path class="path1" d="M513.707 361.813c-87.040 0-158.72 71.68-158.72 158.72s71.68 158.72 158.72 158.72c87.040 0 158.72-71.68 158.72-158.72s-69.973-158.72-158.72-158.72zM513.707 599.040c-44.373 0-78.507-35.84-78.507-78.507s35.84-78.507 78.507-78.507c44.373 0 78.507 35.84 78.507 78.507s-34.133 78.507-78.507 78.507z"></path>
	<path class="path2" d="M513.707 13.653c-273.067 0-494.933 221.867-494.933 494.933s221.867 494.933 494.933 494.933 494.933-221.867 494.933-494.933-221.867-494.933-494.933-494.933zM791.893 638.293c0 44.373-35.84 78.507-78.507 78.507h-397.653c-44.373 0-78.507-35.84-78.507-78.507v-237.227c0-44.373 35.84-78.507 78.507-78.507h78.507l39.253-78.507h158.72l39.253 78.507h78.507c44.373 0 78.507 35.84 78.507 78.507v237.227z"></path>
</symbol>
<symbol id="icon-dt_cart-circle" viewBox="0 0 1024 1024">
	<title>dt_cart-circle</title>
	<path class="path1" d="M512 30.72c-264.533 0-481.28 216.747-481.28 481.28s215.040 481.28 481.28 481.28c264.533 0 481.28-215.040 481.28-481.28 0-264.533-216.747-481.28-481.28-481.28zM406.187 834.56c-27.307 0-51.2-22.187-51.2-51.2 0-27.307 22.187-51.2 51.2-51.2 27.307 0 51.2 22.187 51.2 51.2 0 27.307-23.893 51.2-51.2 51.2zM692.907 834.56c-27.307 0-51.2-22.187-51.2-51.2 0-27.307 22.187-51.2 51.2-51.2s51.2 22.187 51.2 51.2c0 27.307-22.187 51.2-51.2 51.2zM382.293 643.413h375.467v59.733h-426.667l-59.733-378.88h-105.813v-59.733h157.013l10.24 68.267h462.507l-42.667 269.653h-377.173l6.827 40.96z"></path>
	<path class="path2" d="M482.987 390.827h93.867v75.093h-93.867v-75.093z"></path>
	<path class="path3" d="M482.987 488.107h93.867v54.613h-93.867v-54.613z"></path>
	<path class="path4" d="M599.040 465.92h114.347l11.947-75.093h-126.293z"></path>
	<path class="path5" d="M599.040 541.013h102.4l8.533-52.907h-110.933z"></path>
	<path class="path6" d="M365.227 541.013h95.573v-52.907h-104.107z"></path>
	<path class="path7" d="M353.28 465.92h107.52v-75.093h-117.76z"></path>
</symbol>
<symbol id="icon-dt_cart" viewBox="0 0 1024 1024">
	<title>dt_cart</title>
	<path class="path1" d="M249.173 163.84l-10.24-68.267c-3.413-23.893-23.893-39.253-46.080-39.253h-163.84v93.867h121.173l88.747 568.32c3.413 23.893 23.893 39.253 46.080 39.253h595.627v-93.867h-552.96l-10.24-68.267h604.16l69.973-433.493h-742.4zM442.027 501.76h-139.947l-15.36-93.867h155.307v93.867zM442.027 366.933h-162.133l-17.067-107.52h177.493v107.52zM658.773 501.76h-175.787v-93.867h175.787v93.867zM658.773 366.933h-175.787v-107.52h175.787v107.52zM841.387 501.76h-141.653v-93.867h157.013l-15.36 93.867zM863.573 366.933h-163.84v-107.52h180.907l-17.067 107.52z"></path>
	<path class="path2" d="M366.933 805.547c-44.373 0-81.92 35.84-81.92 81.92 0 44.373 35.84 81.92 81.92 81.92s81.92-35.84 81.92-81.92c0-44.373-35.84-81.92-81.92-81.92z"></path>
	<path class="path3" d="M827.733 805.547c-44.373 0-81.92 35.84-81.92 81.92 0 44.373 35.84 81.92 81.92 81.92 44.373 0 81.92-35.84 81.92-81.92-1.707-44.373-37.547-81.92-81.92-81.92z"></path>
</symbol>
<symbol id="icon-dt_check-circle" viewBox="0 0 1024 1024">
	<title>dt_check-circle</title>
	<path class="path1" d="M512 18.773c-273.067 0-493.227 221.867-493.227 493.227s220.16 493.227 493.227 493.227c271.36 0 493.227-220.16 493.227-493.227s-221.867-493.227-493.227-493.227zM491.52 814.080l-220.16-291.84 100.693-76.8 112.64 150.187 235.52-348.16 104.107 71.68-332.8 494.933z"></path>
</symbol>
<symbol id="icon-dt_close" viewBox="0 0 1024 1024">
	<title>dt_close</title>
	<path class="path1" d="M512 20.48c-269.653 0-489.813 220.16-489.813 489.813s220.16 489.813 489.813 489.813 489.813-220.16 489.813-489.813c0-269.653-218.453-489.813-489.813-489.813zM512 911.36c-221.867 0-401.067-179.2-401.067-401.067s179.2-401.067 401.067-401.067 401.067 179.2 401.067 401.067c0 221.867-179.2 401.067-401.067 401.067z"></path>
	<path class="path2" d="M725.333 401.067l-95.573-93.867-109.227 110.933-117.76-117.76-93.867 95.573 116.053 116.053-116.053 116.053 95.573 95.573 116.053-117.76 116.053 116.053 93.867-93.867-116.053-116.053z"></path>
</symbol>
<symbol id="icon-dt_closeup-corner" viewBox="0 0 1024 1024">
	<title>dt_closeup-corner</title>
	<path class="path1" d="M771.413 500.053c-92.16 0-168.96 75.093-168.96 168.96 0 32.427 10.24 63.147 25.6 88.747l52.907 52.907c25.6 17.067 56.32 25.6 88.747 25.6 92.16 0 168.96-75.093 168.96-168.96 1.707-92.16-73.387-167.253-167.253-167.253zM837.973 663.893h-59.733v64.853h-17.067v-64.853h-59.733v-13.653h59.733v-58.027h17.067v58.027h59.733v13.653z"></path>
	<path class="path2" d="M-8.533 1029.12h1032.533v-1030.827l-1032.533 1030.827zM771.413 873.813c-42.667 0-83.627-13.653-116.053-35.84l-143.36 141.653-52.907-52.907 143.36-143.36c-22.187-32.427-35.84-73.387-35.84-116.053 0-112.64 92.16-206.507 206.507-206.507 112.64 0 206.507 92.16 206.507 206.507-1.707 114.347-93.867 206.507-208.213 206.507z"></path>
</symbol>
<symbol id="icon-dt_d-circle" viewBox="0 0 1024 1024">
	<title>dt_d-circle</title>
	<path class="path1" d="M508.587 30.72c-267.947 0-486.4 218.453-486.4 486.4s218.453 486.4 486.4 486.4c267.947 0 486.4-218.453 486.4-486.4s-218.453-486.4-486.4-486.4zM508.587 919.893c-221.867 0-402.773-180.907-402.773-402.773s180.907-402.773 402.773-402.773c221.867 0 402.773 180.907 402.773 402.773s-180.907 402.773-402.773 402.773z"></path>
	<path class="path2" d="M535.893 271.36h-105.813v505.173h107.52c71.68 0 88.747-29.013 88.747-90.453v-324.267c0-58.027-17.067-90.453-90.453-90.453zM547.84 687.787c0 10.24-5.12 15.36-15.36 15.36h-25.6v-358.4h23.893c10.24 0 17.067 5.12 17.067 17.067v325.973z"></path>
</symbol>
<symbol id="icon-dt_down-arrow" viewBox="0 0 1024 1024">
	<title>dt_down-arrow</title>
	<path class="path1" d="M1024 0h-1024v1024h1024v-1024zM242.347 334.507h541.013l-278.187 384-262.827-384z"></path>
</symbol>
<symbol id="icon-dt_e-circle" viewBox="0 0 1024 1024">
	<title>dt_e-circle</title>
	<path class="path1" d="M517.12 30.72c-267.947 0-486.4 218.453-486.4 486.4s218.453 486.4 486.4 486.4c267.947 0 486.4-218.453 486.4-486.4s-218.453-486.4-486.4-486.4zM517.12 935.253c-230.4 0-418.133-187.733-418.133-418.133s187.733-418.133 418.133-418.133c230.4 0 418.133 187.733 418.133 418.133s-187.733 418.133-418.133 418.133z"></path>
	<path class="path2" d="M520.533 273.067c-87.040 0-114.347 44.373-114.347 110.933v267.947c0 66.56 23.893 110.933 114.347 110.933 88.747 0 110.933-44.373 110.933-110.933v-59.733h-80.213v63.147c0 25.6-11.947 35.84-30.72 35.84s-30.72-10.24-30.72-35.84v-126.293h141.653v-143.36c0-68.267-23.893-112.64-110.933-112.64zM551.253 465.92h-61.44v-83.627c0-25.6 10.24-37.547 30.72-37.547 17.067 0 30.72 10.24 30.72 37.547v83.627z"></path>
</symbol>
<symbol id="icon-dt_facebook-circle" viewBox="0 0 1024 1024">
	<title>dt_facebook-circle</title>
	<path class="path1" d="M512 17.067c-273.067 0-494.933 221.867-494.933 494.933s221.867 494.933 494.933 494.933c273.067 0 494.933-221.867 494.933-494.933s-221.867-494.933-494.933-494.933zM645.12 332.8h-52.907c0 0-47.787 0-47.787 44.373v64.853h100.693l-13.653 104.107h-85.333v242.347h-100.693v-240.64h-87.040v-104.107h87.040v-69.973c0 0 0-121.173 100.693-134.827 71.68-10.24 100.693 5.12 100.693 5.12v88.747z"></path>
</symbol>
<symbol id="icon-dt_gift-circle" viewBox="0 0 1024 1024">
	<title>dt_gift-circle</title>
	<path class="path1" d="M503.467 30.72c-267.947 0-486.4 218.453-486.4 486.4s218.453 486.4 486.4 486.4c269.653 0 486.4-218.453 486.4-486.4s-216.747-486.4-486.4-486.4zM503.467 935.253c-230.4 0-418.133-187.733-418.133-418.133s187.733-418.133 418.133-418.133c230.4 0 418.133 187.733 418.133 418.133s-187.733 418.133-418.133 418.133z"></path>
	<path class="path2" d="M709.973 254.293c0-15.36-5.12-37.547-34.133-54.613-23.893-13.653-47.787-17.067-69.973-6.827-37.547 15.36-64.853 64.853-83.627 107.52-6.827-23.893-18.773-44.373-37.547-56.32-11.947-6.827-32.427-13.653-59.733 0s-35.84 34.133-35.84 47.787c-3.413 29.013 17.067 59.733 37.547 83.627h-180.907v174.080h34.133v242.347h450.56v-240.64h34.133v-174.080h-160.427c49.493-32.427 104.107-80.213 105.813-122.88zM621.227 230.4c3.413-1.707 6.827-3.413 13.653-3.413 5.12 0 13.653 1.707 22.187 6.827 15.36 8.533 13.653 17.067 13.653 18.773 0 32.427-71.68 85.333-131.413 119.467 13.653-46.080 42.667-126.293 81.92-141.653zM428.373 296.96c0-3.413 1.707-10.24 15.36-17.067s18.773-3.413 20.48-1.707c18.773 11.947 27.307 61.44 29.013 98.987h-11.947c-25.6-23.893-54.613-58.027-52.907-80.213zM481.28 423.253v76.8h-189.44v-76.8h189.44zM325.973 530.773h155.307v216.747h-155.307v-216.747zM542.72 749.227v-218.453h141.653v216.747h-141.653zM718.507 500.053h-175.787v-76.8h175.787v76.8z"></path>
</symbol>
<symbol id="icon-dt_go-circle" viewBox="0 0 1024 1024">
	<title>dt_go-circle</title>
	<path class="path1" d="M512 25.6c-267.947 0-486.4 218.453-486.4 486.4s218.453 486.4 486.4 486.4 486.4-218.453 486.4-486.4-218.453-486.4-486.4-486.4zM423.253 778.24l-76.8-102.4 209.92-158.72-211.627-167.253 80.213-100.693 341.333 271.36-343.040 257.707z"></path>
</symbol>
<symbol id="icon-dt_issues" viewBox="0 0 1024 1024">
	<title>dt_issues</title>
	<path class="path1" d="M520.533 30.72c-269.653 0-486.4 218.453-486.4 486.4s218.453 486.4 486.4 486.4 486.4-218.453 486.4-486.4-218.453-486.4-486.4-486.4zM520.533 935.253c-232.107 0-418.133-187.733-418.133-418.133s187.733-418.133 418.133-418.133 418.133 187.733 418.133 418.133-187.733 418.133-418.133 418.133z"></path>
	<path class="path2" d="M291.84 356.693h375.467v486.4h-375.467v-486.4z"></path>
	<path class="path3" d="M372.053 327.68h324.267v460.8h34.133v-494.933h-358.4z"></path>
	<path class="path4" d="M431.787 267.947h324.267v460.8h34.133v-494.933h-358.4z"></path>
</symbol>
<symbol id="icon-dt_next" viewBox="0 0 1024 1024">
	<title>dt_next</title>
	<path class="path1" d="M512 18.773c-271.36 0-493.227 221.867-493.227 493.227s221.867 493.227 493.227 493.227c271.36 0 493.227-220.16 493.227-493.227s-221.867-493.227-493.227-493.227zM375.467 778.24l-119.467-64.853 151.893-191.147-151.893-191.147 119.467-64.853 204.8 249.173v13.653l-204.8 249.173zM856.747 529.067l-203.093 249.173-119.467-64.853 151.893-191.147-151.893-191.147 119.467-64.853 203.093 249.173v13.653z"></path>
</symbol>
<symbol id="icon-dt_prev" viewBox="0 0 1024 1024">
	<title>dt_prev</title>
	<path class="path1" d="M512 15.36c-274.773 0-496.64 221.867-496.64 496.64s221.867 496.64 496.64 496.64c274.773 0 496.64-221.867 496.64-496.64s-221.867-496.64-496.64-496.64zM368.64 759.467l-204.8-250.88v-13.653l204.8-250.88 121.173 66.56-153.6 192.853 153.6 192.853-121.173 63.147zM769.707 694.613l-121.173 64.853-204.8-250.88v-13.653l204.8-250.88 121.173 66.56-153.6 192.853 153.6 191.147z"></path>
</symbol>
<symbol id="icon-dt_preview-circle" viewBox="0 0 1024 1024">
	<title>dt_preview-circle</title>
	<path class="path1" d="M515.413 30.72c-267.947 0-486.4 218.453-486.4 486.4s218.453 486.4 486.4 486.4c267.947 0 486.4-218.453 486.4-486.4s-218.453-486.4-486.4-486.4zM426.667 691.2h-281.6c-25.6-52.907-39.253-112.64-39.253-174.080 0-225.28 184.32-409.6 409.6-409.6 56.32 0 109.227 11.947 158.72 32.427v252.587h-247.467v298.667zM460.8 424.96h172.373l-172.373 192.853v-192.853zM740.693 658.773h-273.067l238.933-267.947v-235.52c11.947 6.827 22.187 11.947 34.133 20.48v482.987zM798.72 607.573h-35.84v-414.72c11.947 10.24 23.893 18.773 35.84 30.72v384z"></path>
</symbol>
<symbol id="icon-dt_right-arrow" viewBox="0 0 1024 1024">
	<title>dt_right-arrow</title>
	<path class="path1" d="M0 0v1024h1024v-1024h-1024zM334.507 781.653v-539.307l384 278.187-384 261.12z"></path>
</symbol>
<symbol id="icon-dt_search" viewBox="0 0 1024 1024">
	<title>dt_search</title>
	<path class="path1" d="M568.32 295.253c-88.747 0-160.427 71.68-160.427 160.427s71.68 160.427 160.427 160.427 160.427-71.68 160.427-160.427c0-88.747-71.68-160.427-160.427-160.427z"></path>
	<path class="path2" d="M0 0v1024h1024v-1024h-1024zM568.32 662.187c-40.96 0-80.213-11.947-112.64-34.133l-145.067 145.067-61.44-61.44 145.067-145.067c-20.48-32.427-34.133-71.68-34.133-112.64 0-114.347 93.867-208.213 208.213-208.213s208.213 93.867 208.213 208.213c0 116.053-92.16 208.213-208.213 208.213z"></path>
</symbol>
<symbol id="icon-dt_smallbubble" viewBox="0 0 1024 1024">
	<title>dt_smallbubble</title>
	<path class="path1" d="M945.493 680.96c18.773-51.2 29.013-107.52 29.013-165.547 0-262.827-213.333-474.453-474.453-474.453-262.827-1.707-474.453 211.627-474.453 474.453 0 261.12 211.627 474.453 474.453 474.453 128 0 245.76-51.2 331.093-134.827 114.347 13.653 153.6 134.827 153.6 134.827 37.547-146.773-1.707-250.88-39.253-308.907z"></path>
</symbol>
<symbol id="icon-dt_total-arrow" viewBox="0 0 1024 1024">
	<title>dt_total-arrow</title>
	<path class="path1" d="M341.333 1024l274.773-512-274.773-512z"></path>
</symbol>
<symbol id="icon-dt_twitter-circle" viewBox="0 0 1024 1024">
	<title>dt_twitter-circle</title>
	<path class="path1" d="M512 22.187c-271.36 0-489.813 218.453-489.813 489.813s220.16 489.813 489.813 489.813c271.36 0 489.813-220.16 489.813-489.813 0-271.36-218.453-489.813-489.813-489.813zM733.867 534.187c-46.080 182.613-346.453 259.413-484.693 69.973 52.907 51.2 145.067 54.613 203.093-5.12-34.133 5.12-59.733-29.013-17.067-46.080-37.547 3.413-59.733-15.36-68.267-32.427 8.533-8.533 18.773-13.653 37.547-15.36-40.96-10.24-56.32-30.72-61.44-54.613 11.947-3.413 25.6-5.12 34.133-3.413-35.84-18.773-49.493-47.787-46.080-68.267 64.853 23.893 105.813 42.667 139.947 61.44 11.947 6.827 25.6 18.773 40.96 34.133 20.48-52.907 44.373-105.813 85.333-133.12 0 6.827-3.413 11.947-8.533 17.067 11.947-10.24 27.307-18.773 42.667-20.48-1.707 11.947-18.773 18.773-29.013 22.187 8.533-1.707 49.493-20.48 52.907-10.24 5.12 11.947-29.013 17.067-34.133 18.773-3.413 1.707-8.533 3.413-11.947 5.12 51.2-5.12 102.4 37.547 116.053 90.453 1.707 3.413 1.707 8.533 3.413 11.947 18.773 6.827 52.907 0 64.853-6.827-8.533 18.773-29.013 32.427-59.733 35.84 15.36 6.827 42.667 10.24 61.44 6.827-8.533 11.947-29.013 23.893-61.44 22.187z"></path>
</symbol>
<symbol id="icon-dt_user-circle" viewBox="0 0 1024 1024">
	<title>dt_user-circle</title>
	<path class="path1" d="M512 30.72c-269.653 0-486.4 218.453-486.4 486.4s216.747 486.4 486.4 486.4c267.947 0 486.4-218.453 486.4-486.4s-218.453-486.4-486.4-486.4zM512 935.253c-230.4 0-418.133-187.733-418.133-418.133s187.733-418.133 418.133-418.133c230.4 0 418.133 187.733 418.133 418.133s-187.733 418.133-418.133 418.133z"></path>
	<path class="path2" d="M512 529.067c-102.4 0-186.027 87.040-186.027 196.267 0 15.36 370.347 15.36 370.347 0 0-109.227-81.92-196.267-184.32-196.267z"></path>
	<path class="path3" d="M621.227 406.187c0 60.324-48.902 109.227-109.227 109.227s-109.227-48.902-109.227-109.227c0-60.324 48.902-109.227 109.227-109.227s109.227 48.902 109.227 109.227z"></path>
</symbol>
<symbol id="icon-dt_user" viewBox="0 0 1024 1024">
	<title>dt_user</title>
	<path class="path1" d="M508.587 539.307c-226.987 0-409.6 192.853-409.6 433.493 0 34.133 820.907 34.133 820.907 0 0-240.64-184.32-433.493-411.307-433.493z"></path>
	<path class="path2" d="M508.587 512c134.827 0 244.053-109.227 244.053-244.053s-109.227-244.053-244.053-244.053-242.347 110.933-242.347 245.76c0 133.12 109.227 242.347 242.347 242.347z"></path>
</symbol>
</defs>
</svg>
