<?xml version="1.0" encoding="utf-8"?>
<!-- Generator: Adobe Illustrator 18.0.0, SVG Export Plug-In . SVG Version: 6.00 Build 0)  -->
<!DOCTYPE svg PUBLIC "-//W3C//DTD SVG 1.1//EN" "http://www.w3.org/Graphics/SVG/1.1/DTD/svg11.dtd">
<svg version="1.1" id="Lager_1" xmlns="http://www.w3.org/2000/svg" xmlns:xlink="http://www.w3.org/1999/xlink" x="0px" y="0px"
	 width="382.9px" height="776px" viewBox="-576 637 382.9 776" style="enable-background:new -576 637 382.9 776;"
	 xml:space="preserve">
<style type="text/css">
	.st0{fill:#FFFFFF;}
	.st1{fill:#BDC900;}
	.st2{fill:none;}
	.st3{fill:#C2C2C5;}
	.st4{clip-path:url(#SVGID_2_);}
	.st5{clip-path:url(#SVGID_4_);}
	.st6{fill:#87868D;}
	.st7{fill:#131313;}
	.st8{fill:#D65149;}
	.st9{fill:#E6007E;}
	.st10{stroke:#000000;stroke-miterlimit:10;}
	.st11{fill:#3C3C3B;}
	.st12{opacity:0.5;fill:#FFFFFF;}
	.st13{fill:#CCD0D0;}
	.st14{fill:none;stroke:#C2C2C5;stroke-width:0.9793;}
	.st15{clip-path:url(#SVGID_6_);}
	.st16{clip-path:url(#SVGID_8_);}
	.st17{fill:#1D1D1B;}
</style>
<symbol  id="_x2E_arrow-black" viewBox="-7.5 -28 15 56">
	<g>
		<polygon points="-7.5,-28 7.5,0 -7.5,28 		"/>
	</g>
</symbol>
<symbol  id="_x2E_camera" viewBox="-14 -14 28 28">
	<g>
		<g>
			<path d="M0-14c7.7,0,14,6.3,14,14S7.7,14,0,14S-14,7.7-14,0S-7.7-14,0-14"/>
		</g>
	</g>
	<g>
		<g>
			<path class="st0" d="M2.2-0.3c0-1.2-1-2.2-2.2-2.2s-2.2,1-2.2,2.2s1,2.2,2.2,2.2S2.2,0.9,2.2-0.3 M0-4.8c-2.5,0-4.5,2-4.5,4.5
				s2,4.5,4.5,4.5s4.5-2,4.5-4.5S2.5-4.8,0-4.8 M5.6,5.3H3.4L2.2,7.5h-4.5l-1.1-2.2h-2.2c-1.2,0-2.2-1-2.2-2.2v-6.7
				c0-1.2,1-2.2,2.2-2.2H5.6c1.2,0,2.2,1,2.2,2.2V3C7.8,4.3,6.8,5.3,5.6,5.3"/>
		</g>
	</g>
</symbol>
<symbol  id="_x2E_cart-green" viewBox="-28.5 -28.5 57 57">
	<g>
		<g>
			<path class="st1" d="M0-26.5c14.6,0,26.5,11.9,26.5,26.5S14.6,26.5,0,26.5S-26.5,14.6-26.5,0S-14.6-26.5,0-26.5"/>
		</g>
	</g>
	<g>
		<g>
			<path class="st0" d="M0-28.5c-15.7,0-28.5,12.8-28.5,28.5S-15.7,28.5,0,28.5S28.5,15.7,28.5,0S15.7-28.5,0-28.5z M0,24.5
				c-13.5,0-24.5-11-24.5-24.5s11-24.5,24.5-24.5S24.5-13.5,24.5,0S13.5,24.5,0,24.5z"/>
		</g>
	</g>
	<g>
		<g>
			<polygon class="st0" points="12.3,-9.6 -9.1,-9.6 -12.1,9.5 -17.4,9.5 -17.4,12.5 -9.5,12.5 -6.6,-6.6 12.3,-6.6 			"/>
		</g>
	</g>
	<g>
		<g>
			<polygon class="st0" points="12.1,-4.5 -9.8,-4.5 -9.8,-1.5 9.5,-1.5 10.7,6.1 -11.5,6.1 -11.5,9.1 14.3,9.1 			"/>
		</g>
	</g>
	<g>
		<g>
			<polygon class="st0" points="-1.7,-2.8 -3,-2.8 -3,7.8 -1.7,7.8 			"/>
		</g>
	</g>
	<g>
		<g>
			<polygon class="st0" points="5.1,-2.8 3.8,-2.8 3.8,7.8 5.1,7.8 			"/>
		</g>
	</g>
	<g>
		<g>
			<polygon class="st0" points="12.3,1.4 -9.4,1.4 -9.4,2.7 12.3,2.7 			"/>
		</g>
	</g>
	<g>
		<g>
			<path class="st0" d="M-5.3-16.2c1.4,0,2.5,1.1,2.5,2.5s-1.1,2.5-2.5,2.5s-2.5-1.1-2.5-2.5C-7.9-15.1-6.7-16.2-5.3-16.2"/>
		</g>
	</g>
	<g>
		<g>
			<path class="st0" d="M9.1-16.2c1.4,0,2.5,1.1,2.5,2.5s-1.1,2.5-2.5,2.5s-2.5-1.1-2.5-2.5C6.6-15.1,7.7-16.2,9.1-16.2"/>
		</g>
	</g>
</symbol>
<symbol  id="_x2E_cart-small" viewBox="-8 -7.5 15.9 15">
	<g>
		<g>
			<path d="M6.1-4.1h-9.8c-0.4,0-0.7,0.3-0.8,0.7L-6,5.9h-2v1.6h2.7c0.4,0,0.7-0.3,0.8-0.7L-3-2.5h9.1L6.1-4.1z"/>
		</g>
	</g>
	<g>
		<g>
			<polygon points="6.8,-1.4 -3.9,-1.4 -3.9,0.2 5.4,0.2 6.1,4.2 -4.8,4.2 -4.8,5.7 7.9,5.7 			"/>
		</g>
	</g>
	<g>
		<g>
			<polygon points="-0.5,-0.2 -1.1,-0.2 -1.1,4.7 -0.5,4.7 			"/>
		</g>
	</g>
	<g>
		<g>
			<polygon points="3.1,-0.2 2.4,-0.2 2.4,4.7 3.1,4.7 			"/>
		</g>
	</g>
	<g>
		<g>
			<polygon points="6.5,1.7 -4.1,1.7 -4.1,2.4 6.5,2.4 			"/>
		</g>
	</g>
	<g>
		<g>
			<path d="M-2.3-7.5C-1.6-7.5-1-6.9-1-6.2s-0.6,1.3-1.3,1.3s-1.3-0.6-1.3-1.3C-3.7-6.9-3.1-7.5-2.3-7.5"/>
		</g>
	</g>
	<g>
		<g>
			<path d="M5.2-7.5c0.7,0,1.3,0.6,1.3,1.3S5.9-4.9,5.2-4.9S3.9-5.5,3.9-6.2S4.5-7.5,5.2-7.5"/>
		</g>
	</g>
</symbol>
<symbol  id="_x2E_check-circle" viewBox="-17 -17 34 34">
	<g>
		<path d="M0-17c9.4,0,17,7.6,17,17S9.4,17,0,17S-17,9.4-17,0S-9.4-17,0-17"/>
	</g>
	<g>
		<polygon class="st0" points="-0.7,-10.4 -8.3,-0.4 -4.8,2.3 -0.9,-2.9 7.2,9 10.9,6.6 		"/>
	</g>
</symbol>
<symbol  id="_x2E_close" viewBox="-11 -11 22 22">
	<g>
		<g>
			<path class="st0" d="M0-9.2c5.1,0,9.3,4.2,9.3,9.3S5.1,9.4,0,9.4s-9.3-4.2-9.3-9.3S-5.1-9.2,0-9.2"/>
		</g>
	</g>
	<g>
		<g>
			<path d="M0-10.1c-5.6,0-10.2,4.6-10.2,10.2S-5.6,10.3,0,10.3S10.2,5.7,10.2,0.1S5.6-10.1,0-10.1z M0,8.4c-4.6,0-8.3-3.7-8.3-8.3
				S-4.6-8.3,0-8.3S8.3-4.6,8.3,0S4.6,8.4,0,8.4z"/>
		</g>
	</g>
	<g>
		<g>
			<polygon points="2.6,-4.3 -4.2,2.5 -2.3,4.4 4.5,-2.4 			"/>
		</g>
	</g>
	<g>
		<g>
			<polygon points="-2.3,-4.3 -4.2,-2.4 2.5,4.3 4.4,2.4 			"/>
		</g>
	</g>
	<g>
		<polygon class="st2" points="11,-11 -11,-11 -11,11 11,11 		"/>
	</g>
</symbol>
<symbol  id="_x2E_customer-service-bubble" viewBox="-84.9 -87.5 169.8 175">
	<g>
		<path class="st3" d="M23.4,84.2C-21.7,97.1-68.7,71.1-81.6,26s13.1-92.1,58.2-105C0-85.7,24-81.9,43.4-70.3
			c5.6-1.4,14.4-10.1,15.1-17.2c0,0,4.5,14.8-2.5,26.3C67.8-50.8,76.9-37,81.6-20.8C94.5,24.3,68.5,71.3,23.4,84.2"/>
	</g>
	<g>
		<path class="st0" d="M53.7,10.8h2.5v2.9h-8v-2.9h2.5V-8.8h3V10.8z M43.2-5.1c0-0.8-0.3-1.3-1.2-1.3s-1.2,0.6-1.2,1.3v3h-3v-3.1
			c0-2.3,1-4,4.1-4s4.1,1.7,4.1,4v2.6c0,7.7-5.3,5.3-5.3,10.6v1.9c0,0.8,0.3,1.3,1.2,1.3s1.2-0.5,1.2-1.3V7.2h3v2.7c0,2.3-1,4-4.1,4
			s-4.1-1.7-4.1-4V8c0-6.8,5.3-4.4,5.3-10.6V-5.1z M28.5,13.6h-2.9V-8.8h2.7v7.1c0,2.8-0.1,5.8-0.3,8.4l3.8-15.5h2.8v22.4H32V6.5
			c0-2.7,0.1-5.7,0.3-8.4L28.5,13.6z M18.9,15.2h2.5v3.1h-2.5V15.2z M15.4,15.2h2.5v3.1h-2.5V15.2z M18.4,10c0.3-3.7,0.6-7.7,1-11.4
			h-1.9C17.7,2.3,18.1,6.2,18.4,10 M20.3,13.6h-3.8L13.7-8.8h3l0.4,4.6h2.5L20-8.8h3L20.3,13.6z M6.1-2.1h-3v-3.1c0-2.3,1-4,4-4
			c3.1,0,4,1.6,4,4v18.8h-3V-5.1c0-0.8-0.2-1.3-1.1-1.3c-0.8,0-1.1,0.5-1.1,1.3v3C5.9-2.1,6.1-2.1,6.1-2.1z M-1,10.8h2.5v2.9h-8
			v-2.9H-4V-8.8h3V10.8z M-17.2-8.8h4.4c3.1,0,3.9,1.4,3.9,3.9V9.7c0,2.4-0.8,3.9-4,3.9h-4.4V-8.8H-17.2z M-14.2-6v16.8h1.3
			c0.8,0,1.1-0.4,1.1-1.1V-4.9c0-0.7-0.3-1.1-1.1-1.1H-14.2z M-27.1,13.6H-30V-8.8h2.7v7.1c0,2.8-0.1,5.8-0.3,8.4l3.8-15.5h2.8v22.4
			h-2.7V6.5c0-2.7,0.1-5.7,0.3-8.4L-27.1,13.6z M-38.8,13.6h-3V-5.1c0-2.3,0.9-4,4.2-4c3.1,0,4.1,1.7,4.1,4v18.8h-3V-5.1
			c0-0.8-0.3-1.3-1.2-1.3s-1.2,0.5-1.2,1.3v18.7L-38.8,13.6z M-50,13.6h-3V-8.8h3l-0.1,10.2l2.9-10.2h3.2l-3.7,11.3l3.5,11.1h-3.3
			l-2.6-10L-50,13.6z"/>
	</g>
</symbol>
<symbol  id="_x2E_customer-white" viewBox="-9.5 -9.3 19 18.6">
	<g>
		<g>
			<g>
				<defs>
					<polygon id="SVGID_1_" points="-9.5,-9.3 9.5,-9.3 9.5,9.3 -9.5,9.3 					"/>
				</defs>
				<clipPath id="SVGID_2_">
					<use xlink:href="#SVGID_1_"  style="overflow:visible;"/>
				</clipPath>
				<g class="st4">
					<path class="st0" d="M7.5-2.1c0,0,2.9-2.4,1.7-7.2c0,0-1.2,3.6-4.8,2.4L7.5-2.1z"/>
				</g>
			</g>
		</g>
		<g>
			<g>
				<defs>
					<polygon id="SVGID_3_" points="-9.5,-9.3 9.5,-9.3 9.5,9.3 -9.5,9.3 					"/>
				</defs>
				<clipPath id="SVGID_4_">
					<use xlink:href="#SVGID_3_"  style="overflow:visible;"/>
				</clipPath>
				<g class="st5">
					<path class="st0" d="M-0.2-9.3C4.9-9.3,9-5.1,9,0S4.9,9.3-0.2,9.3S-9.5,5.1-9.5,0S-5.4-9.3-0.2-9.3"/>
				</g>
			</g>
		</g>
	</g>
</symbol>
<symbol  id="_x2E_d-circle" viewBox="-28.5 -28.5 57 57">
	<g>
		<g>
			<path d="M0-28.5c-15.7,0-28.5,12.8-28.5,28.5S-15.7,28.5,0,28.5S28.5,15.7,28.5,0S15.7-28.5,0-28.5z M0,23.6
				C-13,23.6-23.6,13-23.6,0S-13-23.6,0-23.6S23.6-13,23.6,0S13,23.6,0,23.6z"/>
		</g>
	</g>
	<g>
		<g>
			<path d="M-0.1,10h1.4c0.6,0,1-0.3,1-1v-19c0-0.6-0.3-0.9-0.9-0.9h-1.5L-0.1,10z M-4.6-15.3h6.3c4.2,0,5.2,1.7,5.2,5.3V9.1
				c0,3.4-1,5.3-5.3,5.3h-6.2V-15.3z"/>
		</g>
	</g>
</symbol>
<symbol  id="_x2E_d-star" viewBox="-19.5 -19.5 39 39">
	<g>
		<g>
			<path d="M1.8,16.8c-0.6-0.6-1.2-1.2-1.8-1.9c-0.6,0.6-1.2,1.2-1.8,1.9l-1,1l-0.6-1.2c-0.4-0.8-0.8-1.6-1.2-2.3
				c-0.8,0.4-1.5,0.8-2.3,1.2L-8.2,16l-0.2-1.4c-0.1-0.9-0.3-1.7-0.4-2.6c-0.9,0.1-1.7,0.3-2.6,0.4l-1.4,0.2l0.2-1.4
				c0.1-0.9,0.3-1.7,0.4-2.6c-0.9-0.1-1.7-0.3-2.6-0.4H-16l0.6-1.2c0.4-0.8,0.8-1.5,1.2-2.3c-0.8-0.4-1.6-0.8-2.3-1.2l-1.2-0.6l1-1
				c0.6-0.6,1.2-1.2,1.9-1.8c-0.6-0.6-1.2-1.2-1.9-1.8l-1-1l1.2-0.6c0.8-0.4,1.6-0.8,2.3-1.2C-14.6-5.3-15-6-15.4-6.8L-16-8.2
				l1.4-0.2c0.9-0.1,1.7-0.3,2.6-0.4c-0.1-0.9-0.3-1.7-0.4-2.6l-0.2-1.4l1.4,0.2c0.9,0.1,1.7,0.3,2.6,0.4c0.1-0.9,0.3-1.7,0.4-2.6
				l0.2-1.4l1.2,0.6c0.8,0.4,1.5,0.8,2.3,1.2c0.4-0.8,0.8-1.6,1.2-2.3l0.6-1.2l1,1c0.6,0.6,1.2,1.2,1.8,1.9c0.6-0.6,1.2-1.2,1.8-1.9
				l1-1l0.6,1.2c0.4,0.8,0.8,1.6,1.2,2.3c0.8-0.4,1.5-0.8,2.3-1.2L8.2-16l0.2,1.4c0.1,0.9,0.3,1.7,0.4,2.6c0.9-0.1,1.7-0.3,2.6-0.4
				l1.4-0.2l-0.2,1.4c-0.1,0.9-0.3,1.7-0.4,2.6c0.9,0.1,1.7,0.3,2.6,0.4H16L15.4-7c-0.4,0.8-0.8,1.5-1.2,2.3
				c0.8,0.4,1.6,0.8,2.3,1.2l1.2,0.6l-1,1c-0.6,0.6-1.2,1.2-1.9,1.8c0.6,0.6,1.2,1.2,1.9,1.8l1,1l-1.2,0.6c-0.8,0.4-1.6,0.8-2.3,1.2
				C14.6,5.3,15,6,15.4,6.8L16,8.2l-1.4,0.2c-0.9,0.1-1.7,0.3-2.6,0.4c0.1,0.9,0.3,1.7,0.4,2.6l0.2,1.4l-1.4-0.2
				c-0.9-0.1-1.7-0.3-2.6-0.4c-0.1,0.9-0.3,1.7-0.4,2.6V16L7,15.4c-0.8-0.4-1.5-0.8-2.3-1.2c-0.4,0.8-0.8,1.6-1.2,2.3l-0.6,1.2
				L1.8,16.8z"/>
		</g>
	</g>
	<g>
		<g>
			<path class="st0" d="M3.1-19.5L0-16.4l-3.1-3.1l-2,3.9l-3.9-2l-0.7,4.3L-14-14l0.7,4.3L-17.6-9l2,3.9l-3.9,2l3.1,3.1l-3.1,3.1
				l3.9,2l-2,3.9l4.3,0.7L-14,14l4.3-0.7l0.7,4.3l3.9-2l2,3.9L0,16.4l3.1,3.1l2-3.9l3.9,2l0.7-4.3L14,14l-0.7-4.3L17.6,9l-2-3.9
				l3.9-2L16.4,0l3.1-3.1l-3.9-2l2-3.9l-4.3-0.7L14-14l-4.3,0.7L9-17.6l-3.9,2L3.1-19.5z M0-13.5l2.5-2.6l1.6,3.2l3.2-1.7l0,0
				L7.8-11l3.6-0.6L10.8-8l3.6,0.5l-1.7,3.2l3.2,1.6l0,0L13.5,0l2.6,2.5l-3.2,1.6l1.7,3.2L11,7.8l0.6,3.6L8,10.8l-0.5,3.6l-3.2-1.7
				l-1.6,3.2L0,13.5l-2.5,2.6l-1.6-3.2l-3.2,1.7L-7.8,11l-3.6,0.6l0,0l0.6-3.6l-3.6-0.5l1.7-3.2l-3.2-1.6l0.1-0.1l2.5-2.4l-2.6-2.5
				l3.2-1.6l-1.7-3.2l3.6-0.5l-0.6-3.6l3.6,0.6l0.5-3.6l3.2,1.6l1.7-3.2L0-13.5z"/>
		</g>
	</g>
	<g>
		<g>
			<path class="st0" d="M-0.9,6.2H0c0.4,0,0.6-0.2,0.6-0.6V-6.2c0-0.4-0.2-0.6-0.5-0.6h-0.9v13L-0.9,6.2z M-3.7-9.4h3.9
				c2.6,0,3.2,1.1,3.2,3.2V5.6c0,2.1-0.6,3.2-3.3,3.2h-3.8L-3.7-9.4z"/>
		</g>
	</g>
</symbol>
<symbol  id="_x2E_d-white-circle" viewBox="-17.5 -17.5 35 35">
	<g>
		<g>
			<path d="M0-16c8.8,0,16,7.2,16,16S8.8,16,0,16S-16,8.8-16,0S-8.8-16,0-16"/>
		</g>
	</g>
	<g>
		<g>
			<path class="st0" d="M0-17.5c-9.6,0-17.5,7.9-17.5,17.5S-9.6,17.5,0,17.5S17.5,9.6,17.5,0S9.6-17.5,0-17.5z M0,14.5
				C-8,14.5-14.5,8-14.5,0S-8-14.5,0-14.5S14.5-8,14.5,0S8,14.5,0,14.5z"/>
		</g>
	</g>
	<g>
		<g>
			<path class="st0" d="M-0.2,5.7L-0.2,5.7c0.4,0,1,0.2,1-0.2V-6.2c0-0.4-0.6-1.1-1-1.1l0,0L-0.2,5.7z M-3.2-9.3H0
				c2.6,0,3.8,0.9,3.8,3.1V5.6c0,2.1-1.2,3.2-3.9,3.2h-3.1V-9.3z"/>
		</g>
	</g>
</symbol>
<symbol  id="_x2E_down-grey" viewBox="-20 -20 40 40">
	<g>
		<polygon class="st6" points="-20,20 -20,-20 20,-20 20,20 		"/>
	</g>
	<g>
		<polygon class="st0" points="-10.6,6.9 -0.3,-8.1 10.6,6.9 		"/>
	</g>
</symbol>
<symbol  id="_x2E_down-small" viewBox="-12.5 -12.5 25 25">
	<g>
		<polygon points="-12.5,12.5 -12.5,-12.5 12.5,-12.5 12.5,12.5 		"/>
	</g>
	<g>
		<polygon class="st0" points="-6.6,4.3 -0.2,-5 6.6,4.3 		"/>
	</g>
</symbol>
<symbol  id="_x2E_downarrow-white" viewBox="-3.4 -4 6.8 8">
	<path class="st0" d="M0.1-0.3l3.3,2.7L2.5,4L0,2l-2.5,2l-0.9-1.6l3.3-2.7C-0.1-0.3,0.1-0.3,0.1-0.3z M0.1-4l3.3,2.7L2.5,0.3L0-1.7
		l-2.5,2l-0.9-1.6L-0.1-4H0.1z"/>
</symbol>
<symbol  id="_x2E_facebook" viewBox="-12 -12 24 24">
	<g>
		<g>
			<path class="st7" d="M0-12c6.6,0,12,5.4,12,12S6.6,12,0,12S-12,6.6-12,0S-6.6-12,0-12"/>
		</g>
	</g>
	<g>
		<g>
			<path class="st0" d="M-1.6-6.7v5.9h-2.1v2.5h2.1v1.7c0,0,0,3,2.4,3.3c1.7,0.2,2.4-0.1,2.4-0.1V4.3H2c0,0-1.2,0-1.2-1.1V1.7h2.4
				L2.9-0.9H0.8v-5.9h-2.4L-1.6-6.7z"/>
		</g>
	</g>
	<g>
		<g>
			<path class="st0" d="M1-6.9h-2.8V-1h-2.1v2.9h2.1v1.5c0,0,0,3.1,2.6,3.5C1.2,7,1.6,7,2,7c0.9,0,1.4-0.2,1.4-0.2h0.1V4.1H2
				c-0.1,0-1,0-1-0.9V1.9h2.5L3.1-1H1V-6.9z M-1.4-6.5h2.1v5.9h2.1L3,1.5H0.6v1.8c0,1,0.9,1.2,1.3,1.2H3v1.9c-0.2,0-0.5,0.1-1.1,0.1
				c-0.3,0-0.7,0-1.1-0.1c-2.2-0.3-2.3-3.1-2.3-3.1V1.5h-2.1v-2.2h2.1v-5.8H-1.4z"/>
		</g>
	</g>
</symbol>
<symbol  id="_x2E_gift" viewBox="-28.5 -28.5 57 57">
	<g>
		<g>
			<path class="st0" d="M0-26.5c14.6,0,26.5,11.9,26.5,26.5S14.6,26.5,0,26.5S-26.5,14.6-26.5,0S-14.6-26.5,0-26.5"/>
		</g>
	</g>
	<g>
		<g>
			<path d="M0-28.5c-15.7,0-28.5,12.8-28.5,28.5S-15.7,28.5,0,28.5S28.5,15.7,28.5,0S15.7-28.5,0-28.5z M0,24.5
				c-13.5,0-24.5-11-24.5-24.5s11-24.5,24.5-24.5S24.5-13.5,24.5,0S13.5,24.5,0,24.5z"/>
		</g>
	</g>
	<g>
		<g>
			<path d="M0.5-15.6c-1,0-1.8,0.8-1.8,1.8V5.9c0,1,0.8,1.8,1.8,1.8s1.8-0.8,1.8-1.8v-19.7C2.3-14.8,1.4-15.6,0.5-15.6z"/>
		</g>
	</g>
	<g>
		<g>
			<polygon points="13.1,-0.9 -13.1,-0.9 -13.1,0.9 13.1,0.9 			"/>
		</g>
	</g>
	<g>
		<g>
			<path class="st8" d="M-10.4,1.3"/>
		</g>
	</g>
	<g>
		<g>
			<path d="M1.9,5.7L1,7.2l-1.6,0.2c0,2.3-0.6,5.8-1.8,6.5c-0.1,0.1-0.4,0.3-1.2-0.1c-0.8-0.4-0.9-0.8-0.9-1
				c-0.1-1.4,2.1-3.9,3.8-5.2l-1.4-1.8c-0.8,0.7-5,4.1-4.7,7.2c0.1,0.8,0.5,2,2.1,2.8c1.6,0.8,2.8,0.4,3.5,0
				c1.1-0.7,1.7-1.9,2.2-3.3c1.1,2.6,2.7,5.4,4.9,6.3c1.3,0.6,2.8,0.4,4.1-0.4c1.7-1,2-2.3,2-3.2C11.9,11.2,3.5,6.6,1.9,5.7z
				 M7.6,17c-0.3,0-0.6-0.1-0.8-0.2c-2.3-1-4-5.7-4.8-8.4c3.5,2,7.6,5.2,7.7,7c0,0.2,0,0.6-0.8,1.1C8.4,16.9,7.9,17,7.6,17z"/>
		</g>
	</g>
	<g>
		<g>
			<path d="M13.3-16.3h-26.4v14.2h-2V8.1h30.4V-2.1h-2V-16.3z M-10.4-13.6h21.1V0.6h2v4.8h-25.1V0.6h2V-13.6z"/>
		</g>
	</g>
</symbol>
<symbol  id="_x2E_go-green" viewBox="-28.5 -28.5 57 57">
	<g>
		<g>
			<path class="st1" d="M0-26.5c14.6,0,26.5,11.9,26.5,26.5S14.6,26.5,0,26.5S-26.5,14.6-26.5,0S-14.6-26.5,0-26.5"/>
		</g>
	</g>
	<g>
		<g>
			<path class="st0" d="M0-28.5c-15.7,0-28.5,12.8-28.5,28.5S-15.7,28.5,0,28.5S28.5,15.7,28.5,0S15.7-28.5,0-28.5z M0,24.5
				c-13.5,0-24.5-11-24.5-24.5s11-24.5,24.5-24.5S24.5-13.5,24.5,0S13.5,24.5,0,24.5z"/>
		</g>
	</g>
	<g>
		<g>
			<polygon class="st0" points="-4.8,-14.5 -9,-8.9 2.4,-0.2 -9.1,8.9 -4.7,14.4 13.9,-0.3 			"/>
		</g>
	</g>
</symbol>
<symbol  id="_x2E_go-large-grey" viewBox="-20 -20 40 40">
	<g>
		<polygon class="st6" points="-20,-20 20,-20 20,20 -20,20 		"/>
	</g>
	<g>
		<polygon class="st0" points="-6.9,-10.6 8.1,-0.3 -6.9,10.6 		"/>
	</g>
</symbol>
<symbol  id="_x2E_go-large-red" viewBox="-20 -20 40 40">
	<g>
		<polygon class="st9" points="-20,-20 20,-20 20,20 -20,20 		"/>
	</g>
	<g>
		<polygon class="st0" points="-6.9,-10.6 8.1,-0.3 -6.9,10.6 		"/>
	</g>
</symbol>
<symbol  id="_x2E_go-square-black-small" viewBox="-13 -13 26 26">
	<g>
		<polygon class="st10" points="-12.5,-12.5 12.5,-12.5 12.5,12.5 -12.5,12.5 		"/>
	</g>
	<g>
		<polygon class="st0" points="-4.3,-6.6 5,-0.2 -4.3,6.6 		"/>
	</g>
</symbol>
<symbol  id="_x2E_issue" viewBox="-28.5 -28.5 57 57">
	<path class="st0" d="M26.1,0.1c0-14.3-11.6-25.8-25.8-25.8S-25.6-14.2-25.6,0.1S-14,25.9,0.2,25.9S26.1,14.3,26.1,0.1z"/>
	<g>
		<g>
			<path d="M0-28.5c-15.7,0-28.5,12.8-28.5,28.5S-15.7,28.5,0,28.5S28.5,15.7,28.5,0S15.7-28.5,0-28.5z M0,24.5
				c-13.5,0-24.5-11-24.5-24.5s11-24.5,24.5-24.5S24.5-13.5,24.5,0S13.5,24.5,0,24.5z"/>
		</g>
	</g>
	<g>
		<g>
			<polygon points="-13.3,-19.2 8.7,-19.2 8.7,9.3 -13.3,9.3 			"/>
		</g>
	</g>
	<g>
		<g>
			<polygon points="12.4,-15.9 10.4,-15.9 10.4,11 -8.6,11 -8.6,13 12.4,13 			"/>
		</g>
	</g>
	<g>
		<g>
			<polygon points="15.9,-12.5 13.9,-12.5 13.9,14.5 -5.1,14.5 -5.1,16.5 15.9,16.5 			"/>
		</g>
	</g>
</symbol>
<symbol  id="_x2E_logo" viewBox="-102.7 -36.6 176.4 74.2">
	<g id="XMLID_13_">
		<path id="XMLID_91_" class="st11" d="M10.5,15.7c1.7,1.5,2.9,3.8,2.9,6.5c0,4.5-3.4,8.2-7.5,8.2c-4.2,0-7.5-3.7-7.5-8.2
			c0-2.6,1.1-4.9,2.8-6.4c-1.1-0.3-1.9-1-2.1-2.1c-1.3,3.4-5.2,5.2-8.8,6c1.9,1.9,3.1,4.6,3.1,7.6c0,5.7-4.3,10.2-9.6,10.2
			s-9.6-4.6-9.6-10.2c0-3.9,2-7.3,5-9c-3.8-1.8-7.7-5-8.1-9.3c-0.6,1.1-1.4,1.7-2.1,2.1c1.3,1.2,2.2,2.9,2.2,4.9
			c0,3.6-2.9,6.5-6.4,6.5c-3.5,0-6.4-2.9-6.4-6.5c0-2.5,1.4-4.7,3.5-5.8c-2.8-1.4-7.1-5.2-6.5-14.6l8.5-4.3l-3.1,7.7
			c8.4,5.2,21.6,8,24.2,0.6c2.6,8.1,9.8,13.9,27.4,6.8L10.4-6l7.1,9.6C17.8,13.4,13.1,15.4,10.5,15.7z"/>
		<path id="XMLID_90_" class="st12" d="M6.5,1.3l-41.6-4.1l-3.3,7.2c7.6,5.5,21,3,23.4-4.8c2.4,8.6,8.7,16.1,24.5,11.2L6.5,1.3z"/>
		<g id="XMLID_35_">
			<g id="XMLID_41_">
				<g id="XMLID_42_">
					<path id="XMLID_87_" class="st11" d="M-87.5-5.8v-19.6c0-1.4,0-3.1,0.1-4.2H-90l-0.1,2.8h-0.1c-0.9-1.8-2.9-3.2-5.5-3.2
						c-3.9,0-6.9,3.3-6.9,8.3c0,5.4,3.3,8.7,7.3,8.7c2.5,0,4.2-1.2,4.9-2.5h0.1v9.7H-87.5z M-90.4-20c0,0.4,0,0.9-0.1,1.2
						c-0.4,1.9-2,3.4-4.3,3.4c-3.1,0-4.9-2.7-4.9-6.3c0-3.3,1.6-6,4.8-6c2,0,3.8,1.3,4.3,3.5c0.1,0.4,0.1,0.8,0.1,1.3V-20z"/>
					<path id="XMLID_84_" class="st11" d="M-80.2-8.8c0-1-0.7-1.8-1.9-1.8c-1,0-1.8,0.8-1.8,1.8c0,1,0.8,1.8,1.8,1.8
						C-80.9-7-80.2-7.8-80.2-8.8z M-83.5-29.6v16.2h3v-16.2H-83.5z"/>
					<path id="XMLID_82_" class="st11" d="M-76.7-17.8c0,1.7,0,3.1-0.1,4.4h2.6l0.2-2.7h0.1c0.8,1.5,2.7,3.1,5.4,3.1
						c2.2,0,5.7-1.3,5.7-6.9v-9.7h-3v9.4c0,2.6-1,4.8-3.8,4.8c-1.9,0-3.5-1.4-4-3c-0.1-0.4-0.2-0.9-0.2-1.4v-9.8h-3V-17.8z"/>
					<path id="XMLID_80_" class="st11" d="M-54.5-8.6v-4.7h3.9v-3.1h-3.9v-7.2c0-2,0.5-3,2.1-3c0.7,0,1.2,0.1,1.6,0.2l0.1-3.2
						c-0.6-0.2-1.7-0.4-3-0.4c-1.5,0-2.8,0.5-3.6,1.3c-0.9,0.9-1.3,2.4-1.3,4.6v7.7h-2.3v3.1h2.3v3.7L-54.5-8.6z"/>
					<path id="XMLID_77_" class="st11" d="M-44-8.7c0-1.2-0.9-2.2-2.3-2.2c-1.4,0-2.3,1-2.3,2.2c0,1.3,0.9,2.2,2.3,2.2
						C-44.9-6.5-44.1-7.4-44-8.7z M-48.4-29.6v16.3h4.2v-16.3H-48.4z"/>
					<path id="XMLID_74_" class="st11" d="M-25.5-5.8V-25c0-1.7,0.1-3.5,0.1-4.6H-29l-0.2,2.6h-0.1c-1-1.8-3-3-5.3-3
						c-3.9,0-7,3.3-7,8.4c0,5.5,3.4,8.7,7.3,8.7c2.2,0,3.9-0.9,4.6-2.1h0.1v9.3H-25.5z M-29.6-20.1c0,0.3,0,0.7-0.1,1.1
						c-0.4,1.6-1.7,2.9-3.6,2.9c-2.7,0-4.1-2.3-4.1-5.4c0-3,1.5-5.2,4.1-5.2c1.7,0,3.2,1.1,3.6,2.9c0.1,0.4,0.1,0.8,0.1,1.2V-20.1z"
						/>
					<path id="XMLID_71_" class="st11" d="M-21.8-18.1c0,1.9,0,3.5-0.1,4.9h3.6l0.2-2.4h0.1c0.7,1.3,2.5,2.8,5.2,2.8
						c2.9,0,5.8-1.8,5.8-7v-9.7h-4.1v9.2c0,2.3-0.9,4.1-3.1,4.1c-1.6,0-2.8-1.2-3.2-2.4c-0.1-0.4-0.2-0.9-0.2-1.3v-9.6h-4.2V-18.1z"
						/>
					<path id="XMLID_66_" class="st11" d="M0.9-8.7c0-1.2-0.9-2.2-2.3-2.2c-1.4,0-2.3,1-2.3,2.2c0,1.3,0.9,2.2,2.3,2.2
						C0-6.5,0.9-7.4,0.9-8.7z M-3.5-29.6v16.3h4.2v-16.3H-3.5z"/>
					<path id="XMLID_63_" class="st11" d="M4.3-18.1c0,1.9,0,3.5-0.1,4.9h3.6L8-15.7h0.1c0.7,1.3,2.5,2.8,5.2,2.8
						c2.9,0,5.8-1.8,5.8-7v-9.7H15v9.2c0,2.3-0.9,4.1-3.1,4.1c-1.6,0-2.8-1.2-3.2-2.4C8.5-19,8.5-19.5,8.5-20v-9.6H4.3V-18.1z"/>
					<path id="XMLID_58_" class="st11" d="M37.7-13.3c-0.1-1.1-0.1-2.4-0.1-4.7v-9.3c0-3.4-0.7-5.9-2.4-7.4c-1.7-1.5-4.1-2-6.3-2
						c-2.1,0-4.3,0.4-5.7,1.3l0.9,3.1c1-0.6,2.8-1.2,4.8-1.2c2.7,0,4.7,1.4,4.7,4.9v1.4h-0.1c-0.9-1.4-2.6-2.4-4.8-2.4
						c-4.1,0-6.9,3.4-6.9,8c0,5.4,3.5,8.6,7.4,8.6c2.5,0,4-1.2,4.7-2.5h0.1l0.2,2.2H37.7z M33.4-19.8c0,0.4,0,0.8-0.1,1.1
						c-0.4,1.5-1.6,2.7-3.4,2.7c-2.3,0-4-2-4-5.3c0-2.8,1.4-5,4-5c1.5,0,2.9,1,3.4,2.5c0.1,0.4,0.2,1,0.2,1.5V-19.8z"/>
					<path id="XMLID_53_" class="st11" d="M40.7-27.9c0,1.2,0.8,2.1,2,2.1s2-0.9,2-2.1c0-1.2-0.8-2.1-2-2.1
						C41.5-30,40.7-29.1,40.7-27.9z"/>
					<path id="XMLID_48_" class="st11" d="M47.7-26.6c0.9-0.6,2.4-1.2,3.9-1.2c2.1,0,3.2,1.1,3.2,2.4c0,1.4-0.8,2.2-3,3
						c-2.9,1-4.3,2.7-4.3,4.6c0,2.6,2.1,4.8,5.6,4.8c1.6,0,3.1-0.5,4-1l-0.7-2.1c-0.6,0.4-1.8,0.9-3.3,0.9c-1.7,0-2.7-1-2.7-2.2
						c0-1.3,1-1.9,3.1-2.8c2.8-1.1,4.3-2.5,4.3-4.9c0-2.9-2.2-4.9-6.1-4.9c-1.8,0-3.4,0.4-4.6,1.1L47.7-26.6z"/>
					<path id="XMLID_43_" class="st11" d="M62.3-22c0.1-4,2.6-5.6,5.6-5.6c2.1,0,3.4,0.4,4.5,0.8l0.5-2.1c-1-0.5-2.8-1-5.4-1
						c-5,0-8,3.3-8,8.2c0,4.9,2.9,8.8,7.6,8.8c5.3,0,6.7-4.7,6.7-7.6c0-0.6-0.1-1.1-0.1-1.4H62.3z M70.9-19.9c0,1.9-0.8,4.8-4.1,4.8
						c-3,0-4.3-2.8-4.5-4.8H70.9z"/>
				</g>
			</g>
		</g>
	</g>
</symbol>
<symbol  id="_x2E_next" viewBox="-30 -30 60 60">
	<g>
		<path class="st0" d="M0-30c16.6,0,30,13.4,30,30S16.6,30,0,30S-30,16.6-30,0S-16.6-30,0-30"/>
	</g>
	<g>
		<path d="M4.1-0.2L-8.3,15l-7.3-4l9.3-11.6l-9.3-11.6l7.3-4L4.1-1.1V-0.2z M21-0.2L8.6,15l-7.3-4l9.3-11.6L1.3-12.2l7.3-4L21-1.1
			V-0.2z"/>
	</g>
</symbol>
<symbol  id="_x2E_order" viewBox="-52.5 -23 105 46">
	<g>
		<polygon class="st1" points="52.5,-23 -52.5,-23 -52.5,23 52.5,23 		"/>
	</g>
	<g>
		<g>
			<path class="st0" d="M24.1-9.9h5.5V-7h-2.5V9.7h-3V-9.9z M16.7-9.9h5.5V-7h-2.5V9.7h-3V-9.9z M11,11.1h2.4v3H11V11.1z M7.8,11.1
				h2.4v3H7.8V11.1z M10.1-0.4c0.2,2.3,0.3,4.7,0.4,6.9l0,0C10.7,4.4,10.8,2,11-0.4l0.2-2.9H10L10.1-0.4z M6.3-9.9h3.1l0.3,3.8h1.8
				l0.3-3.8h3.1L12.5,9.7H8.6L6.3-9.9z M3.7,6.9h2.1v2.9h-7.3V6.9h2.1V-9.9h3V6.9H3.7z M-7.7-3.7h-3v-2.9c0-2,1-3.5,3.8-3.5
				s3.8,1.5,3.8,3.5v2.1c0,6.8-4.6,4.9-4.6,9.4v1.6C-7.7,7-7.5,7.3-7,7.3S-6.2,7-6.2,6.4V3.8h3v2.6c0,2-1,3.5-3.8,3.5
				s-3.8-1.5-3.8-3.5V4.8c0-6,4.6-4.1,4.6-9.4v-2c0-0.5-0.2-0.9-0.8-0.9s-0.8,0.3-0.8,0.9v2.9C-7.8-3.7-7.7-3.7-7.7-3.7z M-15.9-1.4
				h2.8v2.8h-2.8v5.4h3.2v2.9h-6.2V-9.9h6.2V-7h-3.2V-1.4z M-25.7,6.9h1c0.3,0,0.5-0.2,0.5-0.5V2.1c0-0.5-0.2-0.7-0.6-0.7h-1v5.5
				L-25.7,6.9z M-25.7-1.4h1c0.4,0,0.6-0.2,0.6-0.6v-4.5c0-0.4-0.2-0.6-0.5-0.6h-1.1V-1.4z M-28.7-9.9h4.3c2.7,0,3.3,1.4,3.3,3.4
				v4.2c0,1.1-0.4,1.8-1.2,2.4c0.8,0.5,1.1,1.1,1.1,2.3v4.3c0,2-0.6,3.1-3.4,3.1h-4.1C-28.7,9.8-28.7-9.9-28.7-9.9z"/>
		</g>
	</g>
</symbol>
<symbol  id="_x2E_prev" viewBox="-30 -30 60 60">
	<g>
		<path class="st0" d="M0,30c-16.6,0-30-13.4-30-30s13.4-30,30-30S30-16.6,30,0S16.6,30,0,30"/>
	</g>
	<g>
		<path d="M-4.1,0.2L8.3-15l7.3,4L6.3,0.6l9.3,11.6l-7.3,4L-4.1,1.1V0.2z M-21,0.2L-8.6-15l7.3,4l-9.3,11.6l9.3,11.6l-7.3,4L-21,1.1
			V0.2z"/>
	</g>
</symbol>
<symbol  id="_x2E_preview" viewBox="-28.5 -28.5 57 57">
	<g>
		<g>
			<path d="M0-28.5c15.7,0,28.5,12.8,28.5,28.5S15.7,28.5,0,28.5S-28.5,15.7-28.5,0S-15.7-28.5,0-28.5"/>
		</g>
	</g>
	<g>
		<g>
			<path class="st0" d="M-25,7.5v-17.7h20.2L10.3,6.9v18H-8.2C-8.2,25-20.8,19.2-25,7.5"/>
		</g>
	</g>
	<g>
		<g>
			<polygon class="st0" points="-4.4,-8.3 13.2,-8.3 13.2,23 -4.4,23 			"/>
		</g>
	</g>
	<g>
		<g>
			<polygon class="st0" points="15.2,-5.7 17.6,-5.7 17.6,19.8 15.2,19.8 			"/>
		</g>
	</g>
	<g>
		<g>
			<path d="M-5.2-11V7.3h16.4L-5.2-11z M-3.2,5.4V-5.9L6.9,5.4H-3.2z"/>
		</g>
	</g>
	<g>
		<g>
			<path d="M0-27.9c-15.4,0-27.9,12.5-27.9,27.9S-15.4,27.9,0,27.9S27.9,15.4,27.9,0S15.4-27.9,0-27.9z M0,24c-13.2,0-24-10.8-24-24
				s10.8-24,24-24S24-13.2,24,0S13.2,24,0,24z"/>
		</g>
	</g>
	<g>
		<g>
			<path class="st13" d="M-5.4-10.3"/>
		</g>
	</g>
	<g>
		<g>
			<path class="st14" d="M-5.4-10.3"/>
		</g>
	</g>
	<g>
		<g>
			<polygon points="11.3,7.3 9.3,7.3 9.3,22.7 11.3,22.7 			"/>
		</g>
	</g>
</symbol>
<symbol  id="_x2E_search" viewBox="-28.5 -28.5 57 57">
	<g>
		<g>
			<path d="M0-26.5c14.6,0,26.5,11.9,26.5,26.5S14.6,26.5,0,26.5S-26.5,14.6-26.5,0S-14.6-26.5,0-26.5"/>
		</g>
	</g>
	<g>
		<g>
			<path class="st0" d="M0-28.5c-15.7,0-28.5,12.8-28.5,28.5S-15.7,28.5,0,28.5S28.5,15.7,28.5,0S15.7-28.5,0-28.5z M0,24.5
				c-13.5,0-24.5-11-24.5-24.5s11-24.5,24.5-24.5S24.5-13.5,24.5,0S13.5,24.5,0,24.5z"/>
		</g>
	</g>
	<g>
		<g>
			<polygon class="st2" points="-28.5,-28.5 28.5,-28.5 28.5,28.5 -28.5,28.5 			"/>
		</g>
	</g>
	<g>
		<g>
			<polygon class="st0" points="-10.4,-13.6 -13.6,-10.4 -3.5,-0.3 -0.3,-3.5 			"/>
		</g>
	</g>
	<g>
		<g>
			<g>
				<defs>
					<polygon id="SVGID_5_" points="-28.5,-28.5 28.5,-28.5 28.5,28.5 -28.5,28.5 					"/>
				</defs>
				<clipPath id="SVGID_6_">
					<use xlink:href="#SVGID_5_"  style="overflow:visible;"/>
				</clipPath>
				<g class="st15">
					<g>
						<path d="M3-6.6c5.3,0,9.5,4.3,9.5,9.5S8.2,12.5,3,12.5S-6.6,8.2-6.6,3S-2.3-6.6,3-6.6"/>
					</g>
				</g>
			</g>
		</g>
		<g>
			<g>
				<defs>
					<polygon id="SVGID_7_" points="-28.5,-28.5 28.5,-28.5 28.5,28.5 -28.5,28.5 					"/>
				</defs>
				<clipPath id="SVGID_8_">
					<use xlink:href="#SVGID_7_"  style="overflow:visible;"/>
				</clipPath>
				<g class="st16">
					<g>
						<path class="st0" d="M3-7.8C-3-7.8-7.8-3-7.8,3C-7.8,8.9-3,13.7,3,13.7S13.7,8.9,13.7,3C13.7-3,8.9-7.8,3-7.8z M3,11.2
							c-4.6,0-8.3-3.7-8.3-8.3S-1.6-5.4,3-5.4s8.3,3.7,8.3,8.3C11.2,7.5,7.5,11.2,3,11.2z"/>
					</g>
				</g>
			</g>
		</g>
	</g>
</symbol>
<symbol  id="_x2E_star" viewBox="-9 -8.6 18 17.2">
	<g>
		<g>
			<polygon points="0,8.6 -2.3,2.2 -9,2 -3.6,-2.1 -5.6,-8.6 0,-4.7 5.6,-8.6 3.6,-2.1 9,2 2.3,2.2 			"/>
		</g>
	</g>
</symbol>
<symbol  id="_x2E_tagline" viewBox="-100.2 -9 200.3 18.1">
	<path class="st0" d="M79.9,2.5c-0.7-1.1-1.3-2.1-1.8-3.2c-0.6-1.4,0-2.4,1.5-1.9c1.2,0.3,2.5,1,3.2,2c1.6,2,2.9,4.3,4.2,6.6
		c0.9,1.6,1.8,1.9,3.5,0.6c-2.3-1.3-3.4-3.3-4.1-5.8c1.1-0.2,2.2-0.6,3.3-0.7c0.4,0,1,0.5,1.1,0.9c0.6,2.5,4.4,2.7,5.9,1.3
		c0.7-0.6,0.2-1.1-0.4-1.4c-1.1-0.5-2.2-1-3.4-1.5c0.5-1.6,1.8-2.1,3.2-2.1c1.3,0,2.6,0.4,4.1,0.4c-0.4-0.3-0.8-0.7-1.3-0.8
		c-2.1-0.6-4.2-0.6-6.2,0.3c-0.3,0.1-0.6,0.2-0.7,0.5c-1.1,2.3-3.2,1.6-5,1.8c-0.8,0.1-1-0.3-1.3-0.9C84.8-3.9,83-6.1,83.3-9
		c-1,0.9-1.8,1.9-1.4,3.1c0.4,1.1,1.1,2.2,1.6,3.3c0.4,0.7,0.8,1.4,1.1,2.1c-1.5-0.9-2.9-1.8-4.5-2.5c-1.2-0.6-2.7-0.6-3.4,0.7
		c-0.5,0.8-0.4,2.2-0.1,3.2C77.1,2,78.1,2.8,79.9,2.5z M95.7,1.5c0,0.1,0,0.3,0,0.4C95,2,94.2,2.2,93.6,2.1c-0.4-0.1-0.6-0.9-1-1.3
		c0.1-0.1,0.2-0.2,0.3-0.2C93.9,0.9,94.8,1.2,95.7,1.5z"/>
	<path class="st0" d="M-97.2-3.2c1.1,1.3,2.1,2.4,3.1,3.6c0.8,1,1.5,2,2.4,3c1.2,1.2,2.5,0.9,3-0.7c0.2-0.6,0.2-1.3,0.2-2
		c0.1-0.7,0.2-1.5,0.3-2.5c0.7,0.5,1.2,0.7,1.5,1.1c1.7,2.1,3.3,4.3,4.9,6.4c0.6,0.8,1.2,1.7,1.9,2.5c0.2,0.2,0.6,0.5,0.8,0.4
		c0.3-0.1,0.6-0.6,0.5-0.8c0-1,0.2-2.3-1.6-1.9c-0.3,0-0.7-0.4-0.9-0.7c-1.3-1.8-2.5-3.7-3.9-5.4c-0.7-0.8-1.5-1.5-2.5-2.1
		C-88.8-3-90-2.4-90.6-1.1c-0.2,0.5-0.3,1-0.4,1.5s-0.2,0.9-0.4,1.7c-0.8-0.8-1.5-1.5-2.1-2.2c-0.9-1-1.6-2.1-2.6-3
		c-1.6-1.6-3.5-1.1-3.9,1.1c-0.2,1-0.1,2.1,0,3.1c0.3,1.7,0.5,3.4,1.1,5c0.3,0.9,1.2,1.7,1.9,2.4c0.2,0.2,0.8,0.1,1.1-0.1
		c0.1-0.1,0.1-0.7,0-1c-0.8-2.1-1.8-4.1-2.6-6.1C-98.7-0.3-98.7-1.7-97.2-3.2z"/>
	<path class="st0" d="M-1.1,2.1c-0.6,0.3-1.2,0.4-1.8,0.6c0,0.1,0,0.2,0,0.4c0.4,0,0.9,0.1,1.3,0c1.2-0.5,1.5,0.3,1.9,1.1
		s0.6,1.7,1.1,2.5c0.2,0.4,0.8,0.9,1.1,0.8c0.4-0.1,0.7-0.7,1-1.1c-0.2,0-0.4,0-0.5,0c-0.7-1-1.4-2.2-2.2-3.5c1.3,0,2.3,0,3.4,0
		C5,2.9,5.9,3,6.7,2.8C8,2.7,8.2,2.2,7.7,1C7.4,0.2,6.7-0.7,8-1.2C9.2-1.8,9.9-1,10.4-0.1c0.1,0.2,0.2,0.4,0.3,0.6
		c1,2.4,0.6,2.9-2,2.9C8.3,3.5,7.9,3.8,7.5,4c0.4,0.2,0.8,0.5,1.2,0.5c2.2,0.2,3.8-0.6,4-2c0.2-1.7-1.6-4.3-3.3-4.6
		c-0.5-0.1-1-0.1-1.5,0c-1.6,0.2-2,0.9-1.5,2.5C7,2.3,6.9,2.3,5,2.3c-0.9,0-1.7,0-2.6,0C0.1,2.2-0.4,1.7-0.5-0.6
		C-0.5-1.1-0.7-1.5-1-2c0-0.1-0.7,0-0.7,0.2C-1.9-1.3-2.1-0.7-2-0.3C-1.9,0.5-1.4,1.3-1.1,2.1z"/>
	<path class="st0" d="M61.3,2.5c0.5,1.1,1.3,0.8,2.1,0.6c1.1-0.3,1.6-1,1.5-2.1c-0.2-2.3-2.6-4-4.9-3.6c-1.1,0.2-1.2,0.9-0.9,1.8
		c0.5,1.8,0,2.4-1.8,2.4c-1,0-2.1,0-3.1-0.2c-0.4-0.1-0.9-0.5-1-0.9c-0.3-0.6-0.2-1.4-0.5-2.1c-0.2-0.4-0.7-0.7-1-1
		c-0.2,0.5-0.6,1-0.5,1.4c0.2,0.9,0.5,1.9,0.9,2.9c-1.2,0.2-2.1,0.3-3,0.4c0,0.2,0,0.4,0.1,0.7c0.9,0,1.7,0,2.6,0
		c0.9,0,1.5,0.2,1.9,1.1s1,1.7,1.6,2.5c0.2,0.3,0.7,0.4,1.1,0.4c0.1,0,0.5-0.4,0.5-0.6c-0.1-0.3-0.4-0.5-0.6-0.8
		c-0.6-0.9-1.3-1.7-2.1-2.9c1-0.1,1.5-0.2,2.1-0.3c0.8-0.1,1.7,0,2.5-0.1c2.2-0.3,2.3-0.5,1.9-2.8c0-0.3,0.1-0.9,0.3-1
		c0.3-0.2,0.8-0.2,1.2,0c0.9,0.3,2,2.4,1.6,3.2c-0.2,0.4-0.8,0.7-1.2,0.9C62.1,2.6,61.7,2.5,61.3,2.5z"/>
	<path class="st0" d="M-32.9-1.4c0.7,0.1,1.1,0.2,1.6,0.3c0-0.1,0-0.2,0-0.2c-0.9-0.4-2.1-1.5-2.6-1.2C-35-2-34-0.8-33.7,0
		c0.2,0.5,0.4,1,0.6,1.4c-0.1,0.1-0.2,0.2-0.3,0.4c-1.8-1.2-3.7-2.5-5.5-3.7c-0.4-0.2-0.8-0.4-1.2-0.6c0,0.5-0.2,1-0.1,1.4
		c0.2,0.9,0.5,1.7,0.7,2.5c-0.1,0.1-0.2,0.2-0.3,0.3c-1.7-1.1-3.3-2.2-5-3.3c-0.5-0.3-1-0.4-1.6-0.6c0,0.6,0,1.2,0,1.7
		c0.1,0.5,0.2,1,0.4,1.8c-0.9-0.4-1.5-0.6-2.2-0.9c0.5,0.9,2.6,2.2,3.3,2c0.3-0.1,0.6-0.5,0.6-0.8c0.1-0.5,0-1.1,0-1.8
		c2.2,0.8,3.8,2.8,6.4,2.6c-0.2-0.9-0.3-1.8-0.5-2.8c2.4,1.1,4.2,3.5,7.3,2.7C-31.6,1.1-32.2,0-32.9-1.4z"/>
	<path class="st0" d="M-24.7-1.7c-1.8-0.6-3.2-1.8-5.1-1c0.1,2.6,3.2,5.3,5.6,4.9c0.6-0.1,1.4-0.8,1.5-1.4c0.5-3.8-3.3-9.6-7.8-9.1
		c-0.1,0-0.3,0-0.4,0c-0.5,0.2-0.9,0.4-1.3,0.7c0,0,0.1,0.6,0.2,0.6c0.5-0.1,1-0.1,1.4-0.3c1.1-0.6,2-0.5,2.9,0.3
		C-26-5.7-25.1-3.9-24.7-1.7z M-28.5-1.5c1.9-0.6,3.7,0.1,4,1.3c0.1,0.4,0.1,0.9-0.1,1.2c-0.2,0.2-0.8,0.1-1.1-0.1
		C-26.6,0.2-27.4-0.5-28.5-1.5z"/>
	<path class="st0" d="M-64.3-3.1c3-0.3,4.8,1.2,6,3.4c0.2,0.3,0.2,0.8,0.3,1.2c-0.4,0.1-0.9,0.4-1.3,0.2c-0.8-0.3-1.7-0.8-2.4-1.4
		c-0.5-0.3-0.8-0.9-1.2-1.2c-0.3-0.2-0.8-0.2-1.2-0.1c-0.2,0.1-0.3,0.7-0.2,1c0.8,1.9,1.6,3.7,2.5,5.5c0.2,0.5,0.9,0.5,1.4,0.6
		c0-0.5,0.1-1-0.1-1.4c-0.7-1.2-1.5-2.4-2.3-3.6c0.1-0.1,0.2-0.2,0.3-0.3c0.6,0.4,1.2,0.8,1.8,1.1c1.2,0.6,2.7,1.1,3.7,0
		c0.5-0.6,0.2-2.1-0.2-3.1C-58.2-3.6-61.7-4.6-64.3-3.1z"/>
	<path class="st0" d="M74.4-1.5c-0.6-0.3-1.1-0.8-1.7-1c-0.8-0.2-1.9-0.5-2.5-0.2c-0.5,0.4-0.9,1.7-0.7,2.3c1,2.6,2.2,5.1,3.5,7.5
		c0.4,0.7,1.3,1.2,2,1.7c0.9,0.5,1.7,0.4,2.3-0.7c-0.8-0.4-1.7-0.7-2.4-1.2c-2.3-1.8-3.6-4.4-4.4-7.1c-0.1-0.4,0-1.1,0.2-1.3
		c0.3-0.2,1-0.2,1.4-0.1c0.5,0.1,1,0.4,1.5,0.6C74-1.1,74.2-1.3,74.4-1.5z"/>
	<path class="st0" d="M-12-1.7c0.9,0,1.8-0.1,2.7,0c0.5,0.1,1,0.5,1.5,0.8c-0.4,0.3-0.7,0.8-1.2,1c-0.7,0.3-1.4,0.4-2.1,0.7
		c-1.3,0.5-1.4,1.4-0.2,2.3C-9.6,4.6-6.1,4.7-4,3c-0.5,0-1-0.2-1.4-0.1c-1.4,0.8-3,0.6-4.5,0.1c-0.3-0.1-0.5-0.6-0.8-0.8
		c0.3-0.2,0.5-0.6,0.8-0.7c1-0.2,2-0.4,2.9-0.7C-6.5,0.7-5.9,0.3-5.9,0c0.1-0.5-0.2-1.1-0.6-1.4C-7.8-2.7-10.1-2.9-12-2
		C-12-2-12-1.8-12-1.7z"/>
	<path class="st0" d="M37.7,1c-1.8-1-3.5-2.1-5.4-2.9c-1.7-0.7-2.5-0.2-3.1,1.5c-0.1,0.4-0.4,0.8-0.7,1.2c0.5,0.5,1,1.3,1.8,1.8
		c0.9,0.5,1.9,0.9,2.9,1c0.4,0,1-0.7,1.2-1.3c0.1-0.3-0.6-0.9-1.1-1.2c-0.6-0.3-1.3-0.2-1.9-0.5c-0.3-0.1-0.4-0.6-0.7-1
		c0.4-0.2,0.9-0.7,1.2-0.6c1.5,0.5,3,1.2,4.4,1.9c0.4,0.2,0.8,0.4,1.2,0.5C37.6,1.3,37.6,1.1,37.7,1z M31.1,2.1
		c0.1-0.2,0.2-0.4,0.3-0.6c0.6,0.3,1.3,0.6,1.9,0.9C33.2,2.5,33.1,2.8,33,3C32.3,2.7,31.7,2.4,31.1,2.1z"/>
	<path class="st0" d="M-81.5-1.6c0.8,0.8,1.6,1.6,2.4,2.4c0.9,0.9,2,1.2,3.1,0.9c0.4-0.1,0.9-0.5,1-0.8s-0.3-1-0.6-1.1
		c-1-0.5-2.2-0.8-3.4-1.2c0.7-1.5,2.1-1.2,3.2-1.1c1.2,0.1,2.4,0.6,3.9,1c-2.7-2.2-6.2-2.2-8.5-0.4C-80.6-1.7-81.1-1.7-81.5-1.6z"/>
	<path class="st0" d="M-48.5,2c-0.3-0.3-0.4-0.7-0.6-0.7c-2-0.1-2.8-1.7-3.8-3c-0.8-1-0.7-1.1-2-1c-0.1,1.9-0.2,3.9,1.4,5.3
		c0.3,0.2,0.8,0.1,1.4,0.2c-0.4-1-0.7-1.6-1-2.5C-51.3,0.6-50.8,3.4-48.5,2z"/>
	<path class="st0" d="M22.5,2c-0.9,0-1.5,0-2.1,0c-1.3,0-2.2-0.5-2.6-1.7c-0.1-0.3-0.2-0.6-0.4-0.8c-0.5-0.4-1-0.8-1.5-1.1
		c-0.1,0.6-0.3,1.3-0.2,1.9c0.2,0.8,0.7,1.6,1.1,2.3c0.2,0.3,0.5,0.6,0.8,0.6c0.4,0,0.8-0.2,1.1-0.5C19.6,3,20.9,3.5,22.5,2z"/>
	<path class="st0" d="M42.1,3.5c-1.9-1.1-1.3-2.7-1.1-4.3c0.1-1.1-1.6-2.3-2.7-2.2c-0.9,0.1-1.1,0.9-0.6,2.1
		c0.2-0.1,0.4-0.3,0.5-0.4c0.3-0.2,0.6-0.3,0.9-0.5c0.2,0.4,0.5,0.7,0.5,1.1c0,0.6-0.2,1.1-0.2,1.7C39.2,2.8,39.9,3.5,42.1,3.5z"/>
	<path class="st0" d="M26.6-0.9c-0.8-0.3-1.7-0.9-2.5-0.9C23.2-1.9,22.7-1,23-0.2c0.5,1.2,1.1,2.4,1.8,3.5c0.2,0.3,0.9,0.2,1.6,0.3
		c-0.9-1.7-1.6-3-2.3-4.4c0.1-0.1,0.3-0.2,0.4-0.3c0.6,0.3,1.2,0.5,1.8,0.8C26.4-0.5,26.5-0.7,26.6-0.9z"/>
	<path class="st0" d="M84.6,6.4c-1.2-1.3-2.4-1.7-3.8-1.5c-0.3,0-0.6,0.6-0.9,0.9c0.3,0.2,0.6,0.6,1,0.6C82,6.5,83.1,6.4,84.6,6.4z"
		/>
	<path class="st0" d="M-47,4c0.9,1.9,2.1,1.5,4.1,0.3C-44.3,4.2-45.6,4.1-47,4z"/>
	<path class="st0" d="M29.8,5.7c-0.8-0.1-1.6-0.2-2.4-0.1c-0.2,0-0.4,0.5-0.6,0.7c0.3,0.1,0.6,0.5,0.8,0.4c0.7-0.1,1.4-0.4,2.2-0.6
		C29.8,6,29.8,5.8,29.8,5.7z"/>
</symbol>
<symbol  id="_x2E_twitter" viewBox="-12 -12 24 24">
	<g>
		<g>
			<path class="st7" d="M0-12c6.6,0,12,5.4,12,12S6.6,12,0,12S-12,6.6-12,0S-6.6-12,0-12"/>
		</g>
	</g>
	<g>
		<g>
			<path class="st0" d="M7,0C6.5,0,5.9,0,5.5,0.2C6.2,0.3,6.8,0.6,7,1.1C6.7,0.9,5.8,0.7,5.4,0.9c0,0.1,0,0.2-0.1,0.3
				C4.9,2.5,3.7,3.6,2.5,3.4c0.1,0,0.2,0.1,0.3,0.1s1,0.2,0.8,0.5C3.5,4.3,2.5,3.8,2.3,3.8C2.5,3.9,3,4,3,4.3c-0.4,0-0.8-0.2-1-0.5
				c0.1,0.1,0.2,0.3,0.2,0.4c-1-0.7-1.6-2-2.1-3.2c-0.4,0.4-0.7,0.7-1,0.8c-0.8,0.5-1.9,0.9-3.4,1.5c0-0.5,0.3-1.2,1.1-1.7
				c-0.2,0-0.5,0-0.8-0.1c0-0.6,0.4-1.1,1.4-1.3C-3,0.1-3.3,0-3.5-0.2C-3.3-0.6-2.8-1.1-1.9-1c-1-0.4-0.4-1.3,0.4-1.1
				c-1.4-1.5-3.7-1.4-5-0.1C-3-6.9,4.3-5,5.4-0.6C6.2-0.6,6.7-0.3,7,0"/>
		</g>
	</g>
</symbol>
<symbol  id="_x2E_user-circle" viewBox="-28.5 -28.5 57 57">
	<path class="st0" d="M26.3-0.3c0-14.5-11.8-26.2-26.2-26.2S-26.2-14.8-26.2-0.3S-14.4,25.9,0,25.9S26.3,14.1,26.3-0.3z"/>
	<g>
		<g>
			<path d="M0-28.5c-15.7,0-28.5,12.8-28.5,28.5S-15.7,28.5,0,28.5S28.5,15.7,28.5,0S15.7-28.5,0-28.5z M0,24.5
				c-13.5,0-24.5-11-24.5-24.5s11-24.5,24.5-24.5S24.5-13.5,24.5,0S13.5,24.5,0,24.5z"/>
		</g>
	</g>
	<g>
		<g>
			<path d="M10.9-12.2C10.9-5.8,6-0.7,0-0.7s-10.9-5.1-10.9-11.5C-10.9-13.1,10.9-13.1,10.9-12.2"/>
		</g>
	</g>
	<g>
		<g>
			<path d="M0,0c3.6,0,6.4,2.9,6.4,6.4c0,3.6-2.9,6.4-6.4,6.4c-3.6,0-6.4-2.9-6.4-6.4S-3.6,0,0,0"/>
		</g>
	</g>
</symbol>
<symbol  id="_x2E_user-white" viewBox="-6.3 -7.5 12.6 15.1">
	<g>
		<g>
			<path class="st0" d="M6.3-7.2c0,3.7-2.8,6.7-6.3,6.7s-6.3-3-6.3-6.7C-6.3-7.7,6.3-7.7,6.3-7.2"/>
		</g>
	</g>
	<g>
		<g>
			<path class="st0" d="M0-0.1c2.1,0,3.8,1.7,3.8,3.8S2.1,7.5,0,7.5s-3.8-1.7-3.8-3.8S-2.1-0.1,0-0.1"/>
		</g>
	</g>
</symbol>
<symbol  id="_x2E_zoom" viewBox="-19 -19 38 38">
	<g>
		<g>
			<polygon class="st6" points="-19,-19 19,-19 19,19 			"/>
		</g>
	</g>
	<g>
		<g>
			<polygon class="st0" points="-0.3,-17.1 -2.3,-15.1 5.1,-7.7 7.1,-9.7 			"/>
		</g>
	</g>
	<g>
		<g>
			<path class="st6" d="M9.5-12.4c3.9,0,7.1,3.2,7.1,7.1s-3.2,7.1-7.1,7.1S2.4-1.4,2.4-5.3S5.6-12.4,9.5-12.4"/>
		</g>
	</g>
	<g>
		<g>
			<path class="st0" d="M9.5-13.1c-4.3,0-7.8,3.5-7.8,7.8s3.5,7.8,7.8,7.8s7.8-3.5,7.8-7.8S13.8-13.1,9.5-13.1z M9.5,1
				C6,1,3.1-1.8,3.1-5.3s2.8-6.3,6.3-6.3s6.3,2.8,6.3,6.3C15.8-1.8,13,1,9.5,1z"/>
		</g>
	</g>
	<g>
		<g>
			<polygon class="st0" points="12,-5.2 12,-4.7 9.8,-4.7 9.8,-2.5 9.2,-2.5 9.2,-4.7 6.9,-4.7 6.9,-5.2 9.2,-5.2 9.2,-7.6 
				9.8,-7.6 9.8,-5.2 			"/>
		</g>
	</g>
	<g>
		<polygon class="st2" points="19,-19 -19,-19 -19,19 19,19 		"/>
	</g>
</symbol>
<symbol  id="e-circle" viewBox="-28.5 -28.5 57 57">
	<path class="st0" d="M26.7-0.4c0-14.5-11.8-26.3-26.3-26.3S-25.9-14.9-25.9-0.4s11.8,26.3,26.3,26.3S26.7,14.1,26.7-0.4z"/>
	<g>
		<g>
			<path d="M0-28.5c-15.7,0-28.5,12.8-28.5,28.5S-15.7,28.5,0,28.5S28.5,15.7,28.5,0S15.7-28.5,0-28.5z M0,24.5
				c-13.5,0-24.5-11-24.5-24.5s11-24.5,24.5-24.5S24.5-13.5,24.5,0S13.5,24.5,0,24.5z"/>
		</g>
	</g>
	<g>
		<g>
			<path d="M1.9,3h-3.6v4.9c0,1.5,0.6,2.2,1.8,2.2c1,0,1.8-0.6,1.8-2.2V3z M1.9-4.4v-3.7c0-1.5-0.7-2.1-1.8-2.1s-1.8,0.6-1.8,2.1
				v7.4h8.3v8.4c0,3.9-1.4,6.5-6.5,6.5s-6.7-2.6-6.7-6.5V-7.9c0-3.9,1.4-6.5,6.7-6.5c5.2,0,6.5,2.6,6.5,6.5v3.5L1.9-4.4z"/>
		</g>
	</g>
</symbol>
<use xlink:href="#_x2E_d-circle"  width="57" height="57" x="-28.5" y="-28.5" transform="matrix(1 0 0 -1 -246.5435 1120.8643)" style="overflow:visible;"/>
<use xlink:href="#_x2E_d-white-circle"  width="35" height="35" x="-17.5" y="-17.5" transform="matrix(1 0 0 -1 -440.1913 779.5599)" style="overflow:visible;"/>
<use xlink:href="#_x2E_d-star"  width="39" height="39" x="-19.5" y="-19.5" transform="matrix(0.9974 0 0 -0.9974 -387.3546 781.5826)" style="overflow:visible;"/>
<use xlink:href="#_x2E_user-circle"  width="57" height="57" id="XMLID_6_" x="-28.5" y="-28.5" transform="matrix(1 0 0 -1 -309.398 1208.0765)" style="overflow:visible;"/>
<use xlink:href="#_x2E_user-white"  width="12.6" height="15.1" x="-6.3" y="-7.5" transform="matrix(0.995 0 0 -0.995 -476.4764 768.2496)" style="overflow:visible;"/>
<use xlink:href="#e-circle"  width="57" height="57" id="XMLID_7_" x="-28.5" y="-28.5" transform="matrix(1 0 0 -1 -246.5435 1031.4507)" style="overflow:visible;"/>
<use xlink:href="#_x2E_gift"  width="57" height="57" id="XMLID_4_" x="-28.5" y="-28.5" transform="matrix(1 0 0 -1 -514.8218 1208.0765)" style="overflow:visible;"/>
<use xlink:href="#_x2E_issue"  width="57" height="57" id="XMLID_5_" x="-28.5" y="-28.5" transform="matrix(1 0 0 -1 -377.9065 1208.0765)" style="overflow:visible;"/>
<use xlink:href="#_x2E_preview"  width="57" height="57" x="-28.5" y="-28.5" transform="matrix(1 0 0 -1 -445.1911 1208.077)" style="overflow:visible;"/>
<use xlink:href="#_x2E_cart-green"  width="57" height="57" x="-28.5" y="-28.5" transform="matrix(1 0 0 -1 -440.1911 837.0598)" style="overflow:visible;"/>
<use xlink:href="#_x2E_go-green"  width="57" height="57" x="-28.5" y="-28.5" transform="matrix(1 0 0 -1 -290.5763 837.0598)" style="overflow:visible;"/>
<use xlink:href="#_x2E_order"  width="105" height="46" x="-52.5" y="-23" transform="matrix(1 0 0 -1 -490.1911 1146.2383)" style="overflow:visible;"/>
<use xlink:href="#_x2E_cart-small"  width="15.9" height="15" x="-8" y="-7.5" transform="matrix(0.9937 0 0 -0.9937 -472.2244 790.9935)" style="overflow:visible;"/>
<use xlink:href="#_x2E_facebook"  width="24" height="24" x="-12" y="-12" transform="matrix(1 0 0 -1 -335.7864 1091.0809)" style="overflow:visible;"/>
<use xlink:href="#_x2E_twitter"  width="24" height="24" x="-12" y="-12" transform="matrix(1 0 0 -1 -335.7864 1120.8636)" style="overflow:visible;"/>
<use xlink:href="#_x2E_star"  width="18" height="17.2" x="-9" y="-8.6" transform="matrix(0.9942 0 0 -0.9942 -419.0289 1131.8483)" style="overflow:visible;"/>
<use xlink:href="#_x2E_camera"  width="28" height="28" x="-14" y="-14" transform="matrix(1 0 0 -1 -333.7864 1055.8895)" style="overflow:visible;"/>
<use xlink:href="#_x2E_logo"  width="176.4" height="74.2" id="XMLID_2_" x="-102.7" y="-36.6" transform="matrix(0.9974 0 0 -0.9974 -434.3319 701.1324)" style="overflow:visible;"/>
<use xlink:href="#_x2E_zoom"  width="38" height="38" x="-19" y="-19" transform="matrix(1 0 0 -1 -286.5435 775.799)" style="overflow:visible;"/>
<use xlink:href="#_x2E_close"  width="22" height="22" x="-11" y="-11" transform="matrix(1 0 0 -1 -330.0722 1007.7115)" style="overflow:visible;"/>
<use xlink:href="#_x2E_customer-white"  width="19" height="18.6" x="-9.5" y="-9.3" transform="matrix(0.9946 0 0 -0.9946 -529.8172 770.3489)" style="overflow:visible;"/>
<use xlink:href="#_x2E_search"  width="57" height="57" x="-28.5" y="-28.5" transform="matrix(1 0 0 -1 -513.3197 816.799)" style="overflow:visible;"/>
<use xlink:href="#_x2E_go-square-black-small"  width="26" height="26" id="XMLID_3_" x="-13" y="-13" transform="matrix(1 0 0 -1 -341.8206 775.799)" style="overflow:visible;"/>
<use xlink:href="#_x2E_go-large-grey"  width="40" height="40" x="-20" y="-20" transform="matrix(1 0 0 -1 -357.898 893.1724)" style="overflow:visible;"/>
<use xlink:href="#_x2E_down-grey"  width="40" height="40" x="-20" y="-20" transform="matrix(1 0 0 -1 -333.7864 954.6443)" style="overflow:visible;"/>
<use xlink:href="#_x2E_go-large-red"  width="40" height="40" x="-20" y="-20" transform="matrix(1 0 0 -1 -300.9622 893.1724)" style="overflow:visible;"/>
<use xlink:href="#_x2E_down-small"  width="25" height="25" x="-12.5" y="-12.5" transform="matrix(1 0 0 -1 -457.6935 888.1713)" style="overflow:visible;"/>
<use xlink:href="#_x2E_next"  width="60" height="60" x="-30" y="-30" transform="matrix(1 0 0 -1 -363.7825 838.5587)" style="overflow:visible;"/>
<use xlink:href="#_x2E_prev"  width="60" height="60" x="-30" y="-30" transform="matrix(1 0 0 -1 -513.322 888.1713)" style="overflow:visible;"/>
<use xlink:href="#_x2E_check-circle"  width="34" height="34" x="-17" y="-17" transform="matrix(1 0 0 -1 -401.4051 905.6724)" style="overflow:visible;"/>
<use xlink:href="#_x2E_customer-service-bubble"  width="169.8" height="175" x="-84.9" y="-87.5" transform="matrix(0.9998 0 0 -0.9998 -457.7886 1025.3489)" style="overflow:visible;"/>
<use xlink:href="#_x2E_arrow-black"  width="15" height="56" x="-7.5" y="-28" transform="matrix(1 0 0 -1 -267.4603 962.408)" style="overflow:visible;"/>
<use xlink:href="#_x2E_tagline"  width="200.3" height="18.1" id="XMLID_1_" x="-100.2" y="-9" transform="matrix(0.9983 0 0 -0.9983 -443.2275 1271.493)" style="overflow:visible;"/>
<use xlink:href="#_x2E_downarrow-white"  width="6.8" height="8" x="-3.4" y="-4" transform="matrix(1 0 0 -1 -226.1353 773.3649)" style="overflow:visible;"/>
<image style="display:none;overflow:visible;" width="383" height="776" xlink:href="icons.png"  transform="matrix(1 0 0 1 -576 637)">
</image>
<g>
	<g>
		<path class="st17" d="M-542,1339.1h10.5c6.7,0,8.3,3,8.3,8.6v31.1c0,5.8-1.6,8.6-8.1,8.6H-542V1339.1z M-534,1379.4h1.4
			c1,0,1.4-0.5,1.4-1.5v-29.1c0-1.2-0.5-1.7-1.5-1.7h-1.2V1379.4z"/>
	</g>
	<polygon class="st17" points="-520.2,1387.4 -518.5,1352.9 -512.8,1352.9 -511.1,1387.4 	"/>
	<rect x="-519.4" y="1339.1" class="st17" width="7.6" height="8.8"/>
	<g>
		<path class="st17" d="M-500.5,1360.3c0.1,2.3,0.3,9.7,0.3,12.6v14.5h-7.3v-48.3h7.4l5.5,27.2c-0.1-2.5-0.3-9.7-0.3-12.6v-14.6h7.3
			v48.3h-7.3L-500.5,1360.3z"/>
		<path class="st17" d="M-472,1387.4h-8v-40.3h-4.6v-8h17.3v8h-4.6V1387.4z"/>
		<path class="st17" d="M-464.7,1339.1h8v48.3h-8V1339.1z"/>
		<path class="st17" d="M-452.7,1339.1h10.5c6.7,0,8.3,3,8.3,8.6v31.1c0,5.8-1.6,8.6-8.1,8.6h-10.7V1339.1z M-444.7,1379.4h1.4
			c1,0,1.4-0.5,1.4-1.5v-29.1c0-1.2-0.5-1.7-1.5-1.7h-1.2V1379.4z"/>
		<path class="st17" d="M-422.9,1360.3c0.1,2.3,0.3,9.7,0.3,12.6v14.5h-7.3v-48.3h7.4l5.5,27.2c-0.1-2.5-0.3-9.7-0.3-12.6v-14.6h7.3
			v48.3h-7.3L-422.9,1360.3z"/>
		<path class="st17" d="M-405.8,1339.1h8v48.3h-8V1339.1z"/>
		<path class="st17" d="M-386.5,1360.3c0.1,2.3,0.3,9.7,0.3,12.6v14.5h-7.3v-48.3h7.4l5.5,27.2c-0.1-2.5-0.3-9.7-0.3-12.6v-14.6h7.3
			v48.3h-7.3L-386.5,1360.3z"/>
		<path class="st17" d="M-360.4,1359h9.4v19.7c0,5.3-2.1,9.3-9.4,9.3c-7.3,0-9.4-4-9.4-9.3v-31.1c0-5.3,2.1-9.3,9.4-9.3
			c7.3,0,9.4,4,9.4,9.3v7h-8v-7.2c0-0.9-0.5-1.5-1.4-1.5c-0.9,0-1.4,0.6-1.4,1.5v31.1c0,1.1,0.5,1.7,1.4,1.7c0.9,0,1.4-0.6,1.4-1.7
			v-11.8h-1.4V1359z"/>
	</g>
	<path class="st17" d="M-438.7,1401.8c0,2.4,1,4.4,3.7,4.4c2.8,0,3.7-2,3.7-4.4c0-2.4-1-4.4-3.7-4.4
		C-437.7,1397.4-438.7,1399.4-438.7,1401.8 M-440.7,1401.8c0-3.4,3.1-5,5.7-5c2.6,0,5.7,1.6,5.7,5c0,3.4-3.1,5-5.7,5
		C-437.5,1406.8-440.7,1405.2-440.7,1401.8"/>
	<polygon class="st17" points="-445.7,1397 -449.6,1404.3 -453.1,1397 -454.6,1397 -456.1,1405.9 -457.7,1406.2 -457.7,1406.6 
		-453.7,1406.6 -453.7,1406.2 -455.2,1405.9 -454,1398.9 -450.3,1406.6 -449.8,1406.6 -445.8,1398.8 -444.8,1405.9 -446.3,1406.2 
		-446.3,1406.6 -441.2,1406.6 -441.2,1406.2 -442.9,1405.9 -444.4,1397 	"/>
	<polygon class="st17" points="-426.9,1396.8 -426.9,1405.9 -428.4,1406.2 -428.4,1406.6 -424.4,1406.6 -424.4,1406.2 
		-426.1,1405.9 -426.1,1399.1 -418.4,1406.7 -417.6,1406.7 -417.6,1397.7 -416.3,1397.3 -416.3,1397 -420.1,1397 -420.1,1397.3 
		-418.5,1397.7 -418.5,1404.2 -425.8,1396.8 	"/>
	<path class="st17" d="M-476.4,1406v-4.1h5.7v-0.7h-5.7v-3.7h0.3c1.7,0,5.5,0.5,5.5,0.5v-1.1h-9.2v0.4l1.6,0.3v8.2l-1.6,0.3v0.4h9.3
		v-1.2c0,0-4.4,0.6-5.5,0.6H-476.4z"/>
	<path class="st17" d="M-462.7,1402.1v0.4l1.8,0.4v3c-0.6,0.1-1.2,0.2-2.3,0.2c-2.6,0-3.9-1.7-3.9-4.3c0-3.4,1.8-4.5,4-4.5
		c1.5,0,3,0.6,3.7,1l0.4-1.1c-1.1-0.3-2.7-0.6-4.2-0.6c-2.4,0-5.8,1.3-5.8,5.2c0,3.1,2.8,4.9,5.9,4.9c1.3,0,2.2-0.1,4-0.5v-3.4
		l1.4-0.4v-0.4H-462.7z"/>
	<path class="st17" d="M-406.3,1397v1.1c0,0-2.4-0.5-3.6-0.5h-0.3v8.3l1.7,0.3v0.4h-5.1v-0.4l1.7-0.3v-8.3h-0.3
		c-1.2,0-3.6,0.5-3.6,0.5v-1.1H-406.3z"/>
</g>
</svg>
