<?xml version="1.0" encoding="utf-8"?>
<!-- Generator: Adobe Illustrator 18.1.1, SVG Export Plug-In . SVG Version: 6.00 Build 0)  -->
<!DOCTYPE svg PUBLIC "-//W3C//DTD SVG 1.1//EN" "http://www.w3.org/Graphics/SVG/1.1/DTD/svg11.dtd">
<svg version="1.1" id="Lager_1" xmlns="http://www.w3.org/2000/svg" xmlns:xlink="http://www.w3.org/1999/xlink" x="0px" y="0px"
	 width="57px" height="57px" viewBox="0 0 57 57" enable-background="new 0 0 57 57" xml:space="preserve">
<g>
	<g>
		<path fill="#BDC900" d="M28.5,55C43.1,55,55,43.1,55,28.5C55,13.9,43.1,2,28.5,2S2,13.9,2,28.5C2,43.1,13.9,55,28.5,55"/>
	</g>
</g>
<g>
	<g>
		<path fill="#FFFFFF" d="M28.5,57C12.8,57,0,44.2,0,28.5S12.8,0,28.5,0S57,12.8,57,28.5S44.2,57,28.5,57z M28.5,4C15,4,4,15,4,28.5
			S15,53,28.5,53S53,42,53,28.5S42,4,28.5,4z"/>
	</g>
</g>
<g>
	<g>
		<polygon fill="#FFFFFF" points="40.8,38.1 19.4,38.1 16.4,19 11.1,19 11.1,16 19,16 21.9,35.1 40.8,35.1 		"/>
	</g>
</g>
<g>
	<g>
		<polygon fill="#FFFFFF" points="40.6,33 18.7,33 18.7,30 38,30 39.2,22.4 17,22.4 17,19.4 42.8,19.4 		"/>
	</g>
</g>
<g>
	<g>
		<rect x="25.5" y="20.7" fill="#FFFFFF" width="1.3" height="10.6"/>
	</g>
</g>
<g>
	<g>
		<rect x="32.3" y="20.7" fill="#FFFFFF" width="1.3" height="10.6"/>
	</g>
</g>
<g>
	<g>
		<rect x="19.1" y="25.8" fill="#FFFFFF" width="21.7" height="1.3"/>
	</g>
</g>
<g>
	<g>
		<path fill="#FFFFFF" d="M23.2,44.7c1.4,0,2.5-1.1,2.5-2.5c0-1.4-1.1-2.5-2.5-2.5c-1.4,0-2.5,1.1-2.5,2.5
			C20.6,43.6,21.8,44.7,23.2,44.7"/>
	</g>
</g>
<g>
	<g>
		<path fill="#FFFFFF" d="M37.6,44.7c1.4,0,2.5-1.1,2.5-2.5c0-1.4-1.1-2.5-2.5-2.5c-1.4,0-2.5,1.1-2.5,2.5
			C35.1,43.6,36.2,44.7,37.6,44.7"/>
	</g>
</g>
</svg>
