<?xml version="1.0" encoding="utf-8"?>
<!-- Generated by IcoMoon.io -->
<!DOCTYPE svg PUBLIC "-//W3C//DTD SVG 1.1//EN" "http://www.w3.org/Graphics/SVG/1.1/DTD/svg11.dtd">
<svg version="1.1" xmlns="http://www.w3.org/2000/svg" xmlns:xlink="http://www.w3.org/1999/xlink" width="96" height="96" viewBox="0 0 96 96">
<path fill="#444444" d="M48.48 2.88c-25.12 0-45.6 20.48-45.6 45.6s20.48 45.6 45.6 45.6c25.12 0 45.6-20.48 45.6-45.6s-20.48-45.6-45.6-45.6zM48.48 87.68c-21.6 0-39.2-17.6-39.2-39.2s17.6-39.2 39.2-39.2c21.6 0 39.2 17.6 39.2 39.2s-17.6 39.2-39.2 39.2z"></path>
<path fill="#444444" d="M48.8 25.6c-8.16 0-10.72 4.16-10.72 10.4v25.12c0 6.24 2.24 10.4 10.72 10.4 8.32 0 10.4-4.16 10.4-10.4v-5.6h-7.52v5.92c0 2.4-1.12 3.36-2.88 3.36s-2.88-0.96-2.88-3.36v-11.84h13.28v-13.44c0-6.4-2.24-10.56-10.4-10.56zM51.68 43.68h-5.76v-7.84c0-2.4 0.96-3.52 2.88-3.52 1.6 0 2.88 0.96 2.88 3.52v7.84z"></path>
</svg>
