<?xml version="1.0" encoding="utf-8"?>
<!-- Generated by IcoMoon.io -->
<!DOCTYPE svg PUBLIC "-//W3C//DTD SVG 1.1//EN" "http://www.w3.org/Graphics/SVG/1.1/DTD/svg11.dtd">
<svg version="1.1" xmlns="http://www.w3.org/2000/svg" xmlns:xlink="http://www.w3.org/1999/xlink" width="96" height="96" viewBox="0 0 96 96">
<path fill="#444444" d="M48 1.44c-25.76 0-46.56 20.8-46.56 46.56s20.8 46.56 46.56 46.56c25.76 0 46.56-20.8 46.56-46.56s-20.8-46.56-46.56-46.56zM34.56 71.2l-19.2-23.52v-1.28l19.2-23.52 11.36 6.24-14.4 18.080 14.4 18.080-11.36 5.92zM72.16 65.12l-11.36 6.080-19.2-23.52v-1.28l19.2-23.52 11.36 6.24-14.4 18.080 14.4 17.92z"></path>
</svg>
